trace.vcd
$version Generated by VerilatedVcd $end
$date Tue Apr  8 02:10:25 2025
 $end
$timescale   1ps $end

 $scope module TOP $end
  $var wire  1 "+ clk $end
  $var wire 64 ". entry [63:0] $end
  $var wire  1 "- hz32768timer $end
  $var wire 64 "] m_axi_acaddr [63:0] $end
  $var wire  1 "\ m_axi_acready $end
  $var wire  4 "_ m_axi_acsnoop [3:0] $end
  $var wire  1 "[ m_axi_acvalid $end
  $var wire 64 "J m_axi_araddr [63:0] $end
  $var wire  2 "N m_axi_arburst [1:0] $end
  $var wire  4 "P m_axi_arcache [3:0] $end
  $var wire 13 "I m_axi_arid [12:0] $end
  $var wire  8 "L m_axi_arlen [7:0] $end
  $var wire  1 "O m_axi_arlock $end
  $var wire  3 "Q m_axi_arprot [2:0] $end
  $var wire  1 "S m_axi_arready $end
  $var wire  3 "M m_axi_arsize [2:0] $end
  $var wire  1 "R m_axi_arvalid $end
  $var wire 64 "5 m_axi_awaddr [63:0] $end
  $var wire  2 "9 m_axi_awburst [1:0] $end
  $var wire  4 "; m_axi_awcache [3:0] $end
  $var wire 13 "4 m_axi_awid [12:0] $end
  $var wire  8 "7 m_axi_awlen [7:0] $end
  $var wire  1 ": m_axi_awlock $end
  $var wire  3 "< m_axi_awprot [2:0] $end
  $var wire  1 "> m_axi_awready $end
  $var wire  3 "8 m_axi_awsize [2:0] $end
  $var wire  1 "= m_axi_awvalid $end
  $var wire 13 "E m_axi_bid [12:0] $end
  $var wire  1 "H m_axi_bready $end
  $var wire  2 "F m_axi_bresp [1:0] $end
  $var wire  1 "G m_axi_bvalid $end
  $var wire 64 "U m_axi_rdata [63:0] $end
  $var wire 13 "T m_axi_rid [12:0] $end
  $var wire  1 "X m_axi_rlast $end
  $var wire  1 "Z m_axi_rready $end
  $var wire  2 "W m_axi_rresp [1:0] $end
  $var wire  1 "Y m_axi_rvalid $end
  $var wire 64 "? m_axi_wdata [63:0] $end
  $var wire  1 "B m_axi_wlast $end
  $var wire  1 "D m_axi_wready $end
  $var wire  8 "A m_axi_wstrb [7:0] $end
  $var wire  1 "C m_axi_wvalid $end
  $var wire  1 ", reset $end
  $var wire 64 "2 satp [63:0] $end
  $var wire 64 "0 stackptr [63:0] $end
  $scope module top $end
   $var wire 32 "a ADDR_WIDTH [31:0] $end
   $var wire 32 "a DATA_WIDTH [31:0] $end
   $var wire 32 "` ID_WIDTH [31:0] $end
   $var wire 32 "b STRB_WIDTH [31:0] $end
   $var wire  1 0 alu_src_control $end
   $var wire  1 "+ clk $end
   $var wire 64 ". entry [63:0] $end
   $var wire  1 "- hz32768timer $end
   $var wire  4 . id_alu_op_out [3:0] $end
   $var wire  3 "c id_reg_funct3_out [2:0] $end
   $var wire  7 - id_reg_funct7_out [6:0] $end
   $var wire 32 * id_reg_imm_signed [31:0] $end
   $var wire 32 + id_reg_imm_unsigned [31:0] $end
   $var wire  7 , id_reg_opcode_out [6:0] $end
   $var wire  5 ) id_reg_rd_out [4:0] $end
   $var wire  5 ' id_reg_rs1_out [4:0] $end
   $var wire  5 ( id_reg_rs2_out [4:0] $end
   $var wire 32 # if_instr [31:0] $end
   $var wire 64 "] m_axi_acaddr [63:0] $end
   $var wire  1 "\ m_axi_acready $end
   $var wire  4 "_ m_axi_acsnoop [3:0] $end
   $var wire  1 "[ m_axi_acvalid $end
   $var wire 64 "J m_axi_araddr [63:0] $end
   $var wire  2 "N m_axi_arburst [1:0] $end
   $var wire  4 "P m_axi_arcache [3:0] $end
   $var wire 13 "I m_axi_arid [12:0] $end
   $var wire  8 "L m_axi_arlen [7:0] $end
   $var wire  1 "O m_axi_arlock $end
   $var wire  3 "Q m_axi_arprot [2:0] $end
   $var wire  1 "S m_axi_arready $end
   $var wire  3 "M m_axi_arsize [2:0] $end
   $var wire  1 "R m_axi_arvalid $end
   $var wire 64 "5 m_axi_awaddr [63:0] $end
   $var wire  2 "9 m_axi_awburst [1:0] $end
   $var wire  4 "; m_axi_awcache [3:0] $end
   $var wire 13 "4 m_axi_awid [12:0] $end
   $var wire  8 "7 m_axi_awlen [7:0] $end
   $var wire  1 ": m_axi_awlock $end
   $var wire  3 "< m_axi_awprot [2:0] $end
   $var wire  1 "> m_axi_awready $end
   $var wire  3 "8 m_axi_awsize [2:0] $end
   $var wire  1 "= m_axi_awvalid $end
   $var wire 13 "E m_axi_bid [12:0] $end
   $var wire  1 "H m_axi_bready $end
   $var wire  2 "F m_axi_bresp [1:0] $end
   $var wire  1 "G m_axi_bvalid $end
   $var wire 64 "U m_axi_rdata [63:0] $end
   $var wire 13 "T m_axi_rid [12:0] $end
   $var wire  1 "X m_axi_rlast $end
   $var wire  1 "Z m_axi_rready $end
   $var wire  2 "W m_axi_rresp [1:0] $end
   $var wire  1 "Y m_axi_rvalid $end
   $var wire 64 "? m_axi_wdata [63:0] $end
   $var wire  1 "B m_axi_wlast $end
   $var wire  1 "D m_axi_wready $end
   $var wire  8 "A m_axi_wstrb [7:0] $end
   $var wire  1 "C m_axi_wvalid $end
   $var wire  1 "d mem_read_control $end
   $var wire  1 1 mem_to_reg_control $end
   $var wire  1 "e mem_write_control $end
   $var wire 64 2 regA_data [63:0] $end
   $var wire 64 4 regB_data [63:0] $end
   $var wire  1 / reg_write_control $end
   $var wire  1 ", reset $end
   $var wire 64 "2 satp [63:0] $end
   $var wire 64 "0 stackptr [63:0] $end
   $scope module ControlUnit $end
    $var wire  1 0 alu_src $end
    $var wire  1 0 alu_src_control $end
    $var wire  3 "h funct3 [2:0] $end
    $var wire  7 "g funct7 [6:0] $end
    $var wire 32 # if_instr [31:0] $end
    $var wire  1 : mem_read $end
    $var wire  1 : mem_read_control $end
    $var wire  1 1 mem_to_reg $end
    $var wire  1 1 mem_to_reg_control $end
    $var wire  1 ; mem_write $end
    $var wire  1 ; mem_write_control $end
    $var wire  7 < opcode [6:0] $end
    $var wire  1 / reg_write $end
    $var wire  1 / reg_write_control $end
   $upscope $end
   $scope module Decoder $end
    $var wire 32 "f address [31:0] $end
    $var wire  4 . alu_op [3:0] $end
    $var wire 64 8 decoded_instruction [63:0] $end
    $var wire  3 6 funct3 [2:0] $end
    $var wire  7 7 funct7 [6:0] $end
    $var wire  4 . id_alu_op_out [3:0] $end
    $var wire  3 6 id_reg_funct3_out [2:0] $end
    $var wire  7 - id_reg_funct7_out [6:0] $end
    $var wire 32 * id_reg_imm_signed [31:0] $end
    $var wire 32 + id_reg_imm_unsigned [31:0] $end
    $var wire  7 , id_reg_opcode_out [6:0] $end
    $var wire  5 ) id_reg_rd_out [4:0] $end
    $var wire  5 ' id_reg_rs1_out [4:0] $end
    $var wire  5 ( id_reg_rs2_out [4:0] $end
    $var wire 32 * imm_signed [31:0] $end
    $var wire 32 + imm_unsigned [31:0] $end
    $var wire 32 # input_bin [31:0] $end
    $var wire  7 , opcode [6:0] $end
    $var wire  5 ) rd [4:0] $end
    $var wire  5 ' rs1 [4:0] $end
    $var wire  5 ( rs2 [4:0] $end
   $upscope $end
   $scope module RegisterFile $end
    $var wire  1 "+ clk $end
    $var wire 32 "* i [31:0] $end
    $var wire  5 ) rd_addr [4:0] $end
    $var wire  5 ' regA_addr [4:0] $end
    $var wire 64 2 regA_data [63:0] $end
    $var wire  5 ( regB_addr [4:0] $end
    $var wire 64 4 regB_data [63:0] $end
    $var wire  1 "k reg_write_enable $end
    $var wire 64 H registers(0) [63:0] $end
    $var wire 64 J registers(1) [63:0] $end
    $var wire 64 \ registers(10) [63:0] $end
    $var wire 64 ^ registers(11) [63:0] $end
    $var wire 64 ` registers(12) [63:0] $end
    $var wire 64 b registers(13) [63:0] $end
    $var wire 64 d registers(14) [63:0] $end
    $var wire 64 f registers(15) [63:0] $end
    $var wire 64 h registers(16) [63:0] $end
    $var wire 64 j registers(17) [63:0] $end
    $var wire 64 l registers(18) [63:0] $end
    $var wire 64 n registers(19) [63:0] $end
    $var wire 64 L registers(2) [63:0] $end
    $var wire 64 p registers(20) [63:0] $end
    $var wire 64 r registers(21) [63:0] $end
    $var wire 64 t registers(22) [63:0] $end
    $var wire 64 v registers(23) [63:0] $end
    $var wire 64 x registers(24) [63:0] $end
    $var wire 64 z registers(25) [63:0] $end
    $var wire 64 | registers(26) [63:0] $end
    $var wire 64 ~ registers(27) [63:0] $end
    $var wire 64 "" registers(28) [63:0] $end
    $var wire 64 "$ registers(29) [63:0] $end
    $var wire 64 N registers(3) [63:0] $end
    $var wire 64 "& registers(30) [63:0] $end
    $var wire 64 "( registers(31) [63:0] $end
    $var wire 64 P registers(4) [63:0] $end
    $var wire 64 R registers(5) [63:0] $end
    $var wire 64 T registers(6) [63:0] $end
    $var wire 64 V registers(7) [63:0] $end
    $var wire 64 X registers(8) [63:0] $end
    $var wire 64 Z registers(9) [63:0] $end
    $var wire  1 ", reset $end
    $var wire 64 "i write_data [63:0] $end
   $upscope $end
   $scope module fetch_inst $end
    $var wire  1 "+ clk $end
    $var wire 64 B display_addr [63:0] $end
    $var wire 64 ". entry [63:0] $end
    $var wire 64 @ fetched_instr [63:0] $end
    $var wire 32 # if_instr [31:0] $end
    $var wire 10 F index [9:0] $end
    $var wire 64 "J m_axi_araddr [63:0] $end
    $var wire  2 "N m_axi_arburst [1:0] $end
    $var wire  8 "L m_axi_arlen [7:0] $end
    $var wire  1 "S m_axi_arready $end
    $var wire  3 "M m_axi_arsize [2:0] $end
    $var wire  1 "R m_axi_arvalid $end
    $var wire 64 "U m_axi_rdata [63:0] $end
    $var wire  1 "X m_axi_rlast $end
    $var wire  1 "Z m_axi_rready $end
    $var wire  1 "Y m_axi_rvalid $end
    $var wire 64 D next_display_addr [63:0] $end
    $var wire 64 % next_pc [63:0] $end
    $var wire  3 $ next_state [2:0] $end
    $var wire 64 > pc [63:0] $end
    $var wire 10 G pc_fetch [9:0] $end
    $var wire  1 ", reset $end
    $var wire  3 = state [2:0] $end
   $upscope $end
  $upscope $end
 $upscope $end
$enddefinitions $end


#0
b00000000000000000000000000000000 #
b000 $
b0000000000000000000000000000000000000000000000000000000000000000 %
b00000 '
b00000 (
b00000 )
b00000000000000000000000000000000 *
b00000000000000000000000000000000 +
b0000000 ,
b0000000 -
b0000 .
0/
00
01
b0000000000000000000000000000000000000000000000000000000000000000 2
b0000000000000000000000000000000000000000000000000000000000000000 4
b000 6
b0000000 7
b0000000000000000000000000000000000000000000000000000000000000000 8
0:
0;
b0000000 <
b000 =
b0000000000000000000000000000000000000000000000000000000000000000 >
b0000000000000000000000000000000000000000000000000000000000000000 @
b0000000000000000000000000000000000000000000000000000000000000000 B
b0000000000000000000000000000000000000000000000000000000000000000 D
b0000000000 F
b0000000000 G
b0000000000000000000000000000000000000000000000000000000000000000 H
b0000000000000000000000000000000000000000000000000000000000000000 J
b0000000000000000000000000000000000000000000000000000000000000000 L
b0000000000000000000000000000000000000000000000000000000000000000 N
b0000000000000000000000000000000000000000000000000000000000000000 P
b0000000000000000000000000000000000000000000000000000000000000000 R
b0000000000000000000000000000000000000000000000000000000000000000 T
b0000000000000000000000000000000000000000000000000000000000000000 V
b0000000000000000000000000000000000000000000000000000000000000000 X
b0000000000000000000000000000000000000000000000000000000000000000 Z
b0000000000000000000000000000000000000000000000000000000000000000 \
b0000000000000000000000000000000000000000000000000000000000000000 ^
b0000000000000000000000000000000000000000000000000000000000000000 `
b0000000000000000000000000000000000000000000000000000000000000000 b
b0000000000000000000000000000000000000000000000000000000000000000 d
b0000000000000000000000000000000000000000000000000000000000000000 f
b0000000000000000000000000000000000000000000000000000000000000000 h
b0000000000000000000000000000000000000000000000000000000000000000 j
b0000000000000000000000000000000000000000000000000000000000000000 l
b0000000000000000000000000000000000000000000000000000000000000000 n
b0000000000000000000000000000000000000000000000000000000000000000 p
b0000000000000000000000000000000000000000000000000000000000000000 r
b0000000000000000000000000000000000000000000000000000000000000000 t
b0000000000000000000000000000000000000000000000000000000000000000 v
b0000000000000000000000000000000000000000000000000000000000000000 x
b0000000000000000000000000000000000000000000000000000000000000000 z
b0000000000000000000000000000000000000000000000000000000000000000 |
b0000000000000000000000000000000000000000000000000000000000000000 ~
b0000000000000000000000000000000000000000000000000000000000000000 ""
b0000000000000000000000000000000000000000000000000000000000000000 "$
b0000000000000000000000000000000000000000000000000000000000000000 "&
b0000000000000000000000000000000000000000000000000000000000000000 "(
b00000000000000000000000000100000 "*
1"+
1",
0"-
b0000000000000000000000000000000000000000000000000000000000000000 ".
b0000000000000000000000000000000000111111110000000000000000000000 "0
b0000000000000000000000000000000000110100010101100111000000000000 "2
b0000000000000 "4
b0000000000000000000000000000000000000000000000000000000000000000 "5
b00000000 "7
b000 "8
b00 "9
0":
b0000 ";
b000 "<
0"=
0">
b0000000000000000000000000000000000000000000000000000000000000000 "?
b00000000 "A
0"B
0"C
0"D
b0000000000000 "E
b00 "F
0"G
0"H
b0000000000000 "I
b0000000000000000000000000000000000000000000000000000000000000000 "J
b00000111 "L
b000 "M
b10 "N
0"O
b0000 "P
b000 "Q
0"R
0"S
b0000000000000 "T
b0000000000000000000000000000000000000000000000000000000000000000 "U
b00 "W
0"X
0"Y
0"Z
0"[
0"\
b0000000000000000000000000000000000000000000000000000000000000000 "]
b0000 "_
b00000000000000000000000000001101 "`
b00000000000000000000000001000000 "a
b00000000000000000000000000001000 "b
b000 "c
0"d
0"e
b00000000000000000000000000000000 "f
b0000000 "g
b000 "h
b0000000000000000000000000000000000000000000000000000000000000000 "i
0"k
#0
1">
1"D
1"S
#250
0"+
#250
#500
1"+
#500
#750
0"+
#750
#1000
1"+
#1000
#1250
0"+
0",
#1250
#1500
b001 $
1"+
1"R
#1500
1"-
#1750
0"+
#1750
#2000
b001 =
1"+
0"R
#2000
#2250
0"+
#2250
#2500
1"+
#2500
#2750
0"+
#2750
#3000
1"+
#3000
#3250
0"+
#3250
#3500
1"+
#3500
#3750
0"+
#3750
#4000
1"+
#4000
#4250
0"+
#4250
#4500
1"+
#4500
#4750
0"+
#4750
#5000
1"+
#5000
#5250
0"+
#5250
#5500
1"+
#5500
#5750
0"+
#5750
#6000
1"+
#6000
#6250
0"+
#6250
#6500
1"+
#6500
#6750
0"+
#6750
#7000
1"+
#7000
#7250
0"+
#7250
#7500
1"+
#7500
#7750
0"+
#7750
#8000
1"+
#8000
#8250
0"+
#8250
#8500
1"+
#8500
#8750
0"+
#8750
#9000
1"+
#9000
#9250
0"+
#9250
#9500
1"+
#9500
#9750
0"+
#9750
#10000
1"+
#10000
#10250
0"+
#10250
#10500
1"+
#10500
#10750
0"+
#10750
#11000
1"+
#11000
#11250
0"+
#11250
#11500
1"+
#11500
#11750
0"+
#11750
#12000
1"+
#12000
#12250
0"+
#12250
#12500
1"+
#12500
#12750
0"+
#12750
#13000
1"+
#13000
#13250
0"+
#13250
#13500
1"+
#13500
#13750
0"+
#13750
#14000
1"+
#14000
#14250
0"+
#14250
#14500
1"+
#14500
#14750
0"+
#14750
#15000
1"+
#15000
#15250
0"+
#15250
#15500
1"+
#15500
#15750
0"+
#15750
#16000
1"+
#16000
#16250
0"+
#16250
#16500
1"+
#16500
#16750
0"+
#16750
#17000
1"+
#17000
#17250
0"+
#17250
#17500
1"+
#17500
#17750
0"+
#17750
#18000
1"+
#18000
#18250
0"+
#18250
#18500
1"+
#18500
#18750
0"+
#18750
#19000
1"+
#19000
#19250
0"+
#19250
#19500
1"+
#19500
#19750
0"+
#19750
#20000
1"+
#20000
#20250
0"+
#20250
#20500
1"+
#20500
#20750
0"+
#20750
#21000
1"+
#21000
#21250
0"+
#21250
#21500
1"+
#21500
#21750
0"+
#21750
#22000
1"+
#22000
#22250
0"+
#22250
#22500
1"+
#22500
#22750
0"+
#22750
#23000
1"+
#23000
#23250
0"+
#23250
#23500
1"+
#23500
#23750
0"+
#23750
#24000
1"+
#24000
#24250
0"+
#24250
#24500
1"+
#24500
#24750
0"+
#24750
#25000
1"+
#25000
#25250
0"+
#25250
#25500
1"+
#25500
#25750
0"+
#25750
#26000
1"+
#26000
#26250
0"+
#26250
#26500
1"+
#26500
#26750
0"+
#26750
#27000
1"+
#27000
#27250
0"+
#27250
#27500
1"+
#27500
#27750
0"+
#27750
#28000
1"+
#28000
#28250
0"+
#28250
#28500
1"+
#28500
#28750
0"+
#28750
#29000
1"+
#29000
#29250
0"+
#29250
#29500
1"+
#29500
#29750
0"+
#29750
#30000
1"+
#30000
#30250
0"+
#30250
#30500
1"+
#30500
#30750
0"+
#30750
#31000
1"+
#31000
#31250
0"+
#31250
#31500
1"+
#31500
#31750
0"+
#31750
#32000
1"+
#32000
#32250
0"+
#32250
#32500
1"+
#32500
#32750
0"+
#32750
#33000
1"+
#33000
#33250
0"+
#33250
#33500
1"+
#33500
#33750
0"+
#33750
#34000
1"+
#34000
#34250
0"+
#34250
#34500
1"+
#34500
#34750
0"+
#34750
#35000
1"+
#35000
#35250
0"+
#35250
#35500
1"+
#35500
#35750
0"+
#35750
#36000
1"+
#36000
#36250
0"+
#36250
#36500
1"+
#36500
#36750
0"+
#36750
#37000
1"+
#37000
#37250
0"+
#37250
#37500
1"+
#37500
#37750
0"+
#37750
#38000
1"+
#38000
#38250
0"+
#38250
#38500
1"+
#38500
#38750
0"+
#38750
#39000
1"+
#39000
#39250
0"+
#39250
#39500
1"+
#39500
#39750
0"+
#39750
#40000
1"+
#40000
#40250
0"+
#40250
#40500
1"+
#40500
#40750
0"+
#40750
#41000
1"+
#41000
#41250
0"+
#41250
#41500
1"+
#41500
#41750
0"+
#41750
#42000
1"+
#42000
#42250
0"+
#42250
#42500
1"+
#42500
#42750
0"+
#42750
#43000
1"+
#43000
#43250
0"+
#43250
#43500
1"+
#43500
#43750
0"+
#43750
#44000
1"+
#44000
#44250
0"+
#44250
#44500
1"+
#44500
#44750
0"+
#44750
#45000
1"+
#45000
#45250
0"+
#45250
#45500
1"+
#45500
#45750
0"+
#45750
#46000
1"+
#46000
#46250
0"+
#46250
#46500
1"+
#46500
#46750
0"+
#46750
#47000
1"+
#47000
#47250
0"+
#47250
#47500
1"+
#47500
#47750
0"+
#47750
#48000
1"+
#48000
#48250
0"+
#48250
#48500
1"+
#48500
#48750
0"+
#48750
#49000
1"+
#49000
#49250
0"+
#49250
#49500
1"+
#49500
b0000010010010000000001000001001111111010000000010000000100010011 "U
1"Y
#49750
0"+
#49750
#50000
b100 $
1"+
1"Z
#50000
#50250
0"+
#50250
#50500
b11111010000000010000000100010011 #
b001 $
b00010 '
b00010 )
b11111111111111111111111110100000 *
b0010011 ,
b0010 .
1/
10
b0000000000000000000000000000000001000001010001000100010001001001 8
b0010011 <
b100 =
b0000010010010000000001000001001111111010000000010000000100010011 @
b0000000000000000000000000000000000000000000000000000000000001000 D
b0000000010 F
1"+
0"Z
#50500
b0000010011010000000001010001001100000100011000000000010010010011 "U
#50750
0"+
#50750
#51000
b001 =
b0000000000000000000000000000000000000000000000000000000000001000 B
1"+
#51000
#51250
0"+
#51250
#51500
b100 $
1"+
1"Z
#51500
#51750
0"+
#51750
#52000
b001 $
b100 =
b0000010011010000000001010001001100000100011000000000010010010011 @
b0000000000000000000000000000000000000000000000000000000000010000 D
b0000000100 F
1"+
0"Z
#52000
b0000010100000000000001100001001100000100110100000000010110010011 "U
#52250
0"+
#52250
#52500
b001 =
b0000000000000000000000000000000000000000000000000000000000010000 B
1"+
#52500
#52750
0"+
#52750
#53000
b100 $
1"+
1"Z
#53000
#53250
0"+
#53250
#53500
b001 $
b100 =
b0000010100000000000001100001001100000100110100000000010110010011 @
b0000000000000000000000000000000000000000000000000000000000011000 D
b0000000110 F
1"+
0"Z
#53500
b0000010110000000000001110001001100000010000100000000011010010011 "U
#53750
0"+
#53750
#54000
b001 =
b0000000000000000000000000000000000000000000000000000000000011000 B
1"+
#54000
#54250
0"+
#54250
#54500
b100 $
1"+
1"Z
#54500
#54750
0"+
#54750
#55000
b001 $
b100 =
b0000010110000000000001110001001100000010000100000000011010010011 @
b0000000000000000000000000000000000000000000000000000000000100000 D
b0000001000 F
1"+
0"Z
#55000
b0000010100110000000010000001001100000101000000000000011110010011 "U
#55250
0"+
#55250
#55500
b001 =
b0000000000000000000000000000000000000000000000000000000000100000 B
1"+
#55500
#55750
0"+
#55750
#56000
b100 $
1"+
1"Z
#56000
#56250
0"+
#56250
#56500
b001 $
b100 =
b0000010100110000000010000001001100000101000000000000011110010011 @
b0000000000000000000000000000000000000000000000000000000000101000 D
b0000001010 F
1"+
0"Z
#56500
b0000010001010000000010010001001100000100110100000000100010010011 "U
#56750
0"+
#56750
#57000
b001 =
b0000000000000000000000000000000000000000000000000000000000101000 B
1"+
#57000
#57250
0"+
#57250
#57500
b100 $
1"+
1"Z
#57500
#57750
0"+
#57750
#58000
b001 $
b100 =
b0000010001010000000010010001001100000100110100000000100010010011 @
b0000000000000000000000000000000000000000000000000000000000110000 D
b0000001100 F
1"+
0"Z
#58000
b0000111111110100011100110001001100000010001000000000100110010011 "U
#58250
0"+
#58250
#58500
b001 =
b0000000000000000000000000000000000000000000000000000000000110000 B
1"+
#58500
#58750
0"+
#58750
#59000
b100 $
1"+
1"Z
#59000
#59250
0"+
#59250
#59500
b001 $
b100 =
b0000111111110100011100110001001100000010001000000000100110010011 @
b0000000000000000000000000000000000000000000000000000000000111000 D
b0000001110 F
1"+
0"Z
#59500
b0000111111110011011100110001001111111111111100110000001100011011 "U
1"X
#59750
0"+
#59750
#60000
b00000100100100000000010000010011 #
b00000 '
b01000 )
b00000000000000000000000001001001 *
b001 =
b0000000000000000000000000000000000000000000000000000000000111000 B
b0000000100 G
1"+
#60000
#60250
0"+
#60250
#60500
b00000100011000000000010010010011 #
b100 $
b01001 )
b00000000000000000000000001000110 *
b0000001000 G
1"+
1"Z
#60500
#60750
0"+
#60750
#61000
b00000100110100000000010100010011 #
b01010 )
b00000000000000000000000001001101 *
b100 =
b0000111111110011011100110001001111111111111100110000001100011011 @
b0000000000000000000000000000000000000000000000000000000001000000 D
b0000010000 F
b0000001100 G
1"+
0"Z
#61000
b000 $
b0000000000000000000000000000000000000000000000000000000001000000 %
0"Y
#61250
0"+
#61250
#61500
b00000100110100000000010110010011 #
b01011 )
b000 =
b0000000000000000000000000000000000000000000000000000000001000000 >
b0000000000000000000000000000000000000000000000000000000001000000 B
b0000010000 G
1"+
#61500
#61750
0"+
#61750
#62000
b00000101000000000000011000010011 #
b001 $
b01100 )
b00000000000000000000000001010000 *
b0000010100 G
1"+
b0000000000000000000000000000000000000000000000000000000001000000 "J
1"R
#62000
#62250
0"+
#62250
#62500
b00000010000100000000011010010011 #
b01101 )
b00000000000000000000000000100001 *
b001 =
b0000011000 G
1"+
0"R
#62500
#62750
0"+
#62750
#63000
b00000101100000000000011100010011 #
b01110 )
b00000000000000000000000001011000 *
b0000011100 G
1"+
#63000
#63250
0"+
#63250
#63500
b00000101000000000000011110010011 #
b01111 )
b00000000000000000000000001010000 *
b0000100000 G
1"+
#63500
#63750
0"+
#63750
#64000
b00000101001100000000100000010011 #
b10000 )
b00000000000000000000000001010011 *
b0000100100 G
1"+
#64000
#64250
0"+
#64250
#64500
b00000100110100000000100010010011 #
b10001 )
b00000000000000000000000001001101 *
b0000101000 G
1"+
#64500
#64750
0"+
#64750
#65000
b00000100010100000000100100010011 #
b10010 )
b00000000000000000000000001000101 *
b0000101100 G
1"+
#65000
#65250
0"+
#65250
#65500
b00000010001000000000100110010011 #
b10011 )
b00000000000000000000000000100010 *
b0000110000 G
1"+
#65500
#65750
0"+
#65750
#66000
b00001111111101000111001100010011 #
b01000 '
b00110 )
b00000000000000000000000011111111 *
b0000 .
b111 6
b0000000000000000000000000000000001000001010011100100010001001001 8
b0000110100 G
1"+
#66000
#66250
0"+
#66250
#66500
b11111111111100110000001100011011 #
b00110 '
b11111111111111111111111111111111 *
b0011011 ,
b0010 .
b000 6
b0000000000000000000000000100000101000100010001000100100101010111 8
b0011011 <
b0000111000 G
1"+
#66500
#66750
0"+
#66750
#67000
b00001111111100110111001100010011 #
b00000000000000000000000011111111 *
b0010011 ,
b0000 .
b111 6
b0000000000000000000000000000000001000001010011100100010001001001 8
b0010011 <
b0000111100 G
1"+
#67000
#67250
0"+
#67250
#67500
b00000000000000000000000000000000 #
b00000 '
b00000 )
b0000000 ,
b000 6
b0000000 <
b0001000000 G
1"+
#67500
#67750
0"+
#67750
#68000
b0001000100 G
1"+
#68000
#68250
0"+
#68250
#68500
b0001001000 G
1"+
#68500
#68750
0"+
#68750
#69000
b0001001100 G
1"+
#69000
#69250
0"+
#69250
#69500
b0001010000 G
1"+
#69500
#69750
0"+
#69750
#70000
b0001010100 G
1"+
#70000
#70250
0"+
#70250
#70500
b0001011000 G
1"+
#70500
#70750
0"+
#70750
#71000
b0001011100 G
1"+
#71000
#71250
0"+
#71250
#71500
b0001100000 G
1"+
#71500
#71750
0"+
#71750
#72000
b0001100100 G
1"+
#72000
#72250
0"+
#72250
#72500
b0001101000 G
1"+
#72500
#72750
0"+
#72750
#73000
b0001101100 G
1"+
#73000
#73250
0"+
#73250
#73500
b0001110000 G
1"+
#73500
#73750
0"+
#73750
#74000
b0001110100 G
1"+
#74000
#74250
0"+
#74250
#74500
b0001111000 G
1"+
#74500
#74750
0"+
#74750
#75000
b0001111100 G
1"+
#75000
#75250
0"+
#75250
#75500
b0010000000 G
1"+
#75500
#75750
0"+
#75750
#76000
b0010000100 G
1"+
#76000
#76250
0"+
#76250
#76500
b0010001000 G
1"+
#76500
#76750
0"+
#76750
#77000
b0010001100 G
1"+
#77000
#77250
0"+
#77250
#77500
b0010010000 G
1"+
#77500
#77750
0"+
#77750
#78000
b0010010100 G
1"+
#78000
#78250
0"+
#78250
#78500
b0010011000 G
1"+
#78500
#78750
0"+
#78750
#79000
b0010011100 G
1"+
#79000
#79250
0"+
#79250
#79500
b0010100000 G
1"+
#79500
#79750
0"+
#79750
#80000
b0010100100 G
1"+
#80000
#80250
0"+
#80250
#80500
b0010101000 G
1"+
#80500
#80750
0"+
#80750
#81000
b0010101100 G
1"+
#81000
#81250
0"+
#81250
#81500
b0010110000 G
1"+
#81500
#81750
0"+
#81750
#82000
b0010110100 G
1"+
#82000
#82250
0"+
#82250
#82500
b0010111000 G
1"+
#82500
#82750
0"+
#82750
#83000
b0010111100 G
1"+
#83000
#83250
0"+
#83250
#83500
b0011000000 G
1"+
#83500
#83750
0"+
#83750
#84000
b0011000100 G
1"+
#84000
#84250
0"+
#84250
#84500
b0011001000 G
1"+
#84500
#84750
0"+
#84750
#85000
b0011001100 G
1"+
#85000
#85250
0"+
#85250
#85500
b0011010000 G
1"+
#85500
#85750
0"+
#85750
#86000
b0011010100 G
1"+
#86000
#86250
0"+
#86250
#86500
b0011011000 G
1"+
#86500
#86750
0"+
#86750
#87000
b0011011100 G
1"+
#87000
#87250
0"+
#87250
#87500
b0011100000 G
1"+
#87500
#87750
0"+
#87750
#88000
b0011100100 G
1"+
#88000
#88250
0"+
#88250
#88500
b0011101000 G
1"+
#88500
#88750
0"+
#88750
#89000
b0011101100 G
1"+
#89000
#89250
0"+
#89250
#89500
b0011110000 G
1"+
#89500
#89750
0"+
#89750
#90000
b0011110100 G
1"+
#90000
#90250
0"+
#90250
#90500
b0011111000 G
1"+
#90500
#90750
0"+
#90750
#91000
b0011111100 G
1"+
#91000
#91250
0"+
#91250
#91500
b0100000000 G
1"+
#91500
#91750
0"+
#91750
#92000
b0100000100 G
1"+
#92000
#92250
0"+
#92250
#92500
b0100001000 G
1"+
#92500
#92750
0"+
#92750
#93000
b0100001100 G
1"+
#93000
#93250
0"+
#93250
#93500
b0100010000 G
1"+
#93500
#93750
0"+
#93750
#94000
b0100010100 G
1"+
#94000
#94250
0"+
#94250
#94500
b0100011000 G
1"+
#94500
#94750
0"+
#94750
#95000
b0100011100 G
1"+
#95000
#95250
0"+
#95250
#95500
b0100100000 G
1"+
#95500
#95750
0"+
#95750
#96000
b0100100100 G
1"+
#96000
#96250
0"+
#96250
#96500
b0100101000 G
1"+
#96500
#96750
0"+
#96750
#97000
b0100101100 G
1"+
#97000
#97250
0"+
#97250
#97500
b0100110000 G
1"+
#97500
#97750
0"+
#97750
#98000
b0100110100 G
1"+
#98000
#98250
0"+
#98250
#98500
b0100111000 G
1"+
#98500
#98750
0"+
#98750
#99000
b0100111100 G
1"+
#99000
#99250
0"+
#99250
#99500
b0101000000 G
1"+
#99500
#99750
0"+
#99750
#100000
b0101000100 G
1"+
#100000
#100250
0"+
#100250
#100500
b0101001000 G
1"+
#100500
b0000111111110100111100110001001100000000000000110000101000010011 "U
0"X
1"Y
#100750
0"+
#100750
#101000
b100 $
1"+
1"Z
#101000
#101250
0"+
#101250
#101500
b001 $
b100 =
b0000111111110100111100110001001100000000000000110000101000010011 @
b0000000000000000000000000000000000000000000000000000000001001000 D
b0000010010 F
1"+
0"Z
#101500
b0000111111110011011100110001001111111111111100110000001100011011 "U
#101750
0"+
#101750
#102000
b001 =
b0000000000000000000000000000000000000000000000000000000001001000 B
1"+
#102000
#102250
0"+
#102250
#102500
b100 $
1"+
1"Z
#102500
#102750
0"+
#102750
#103000
b001 $
b100 =
b0000111111110011011100110001001111111111111100110000001100011011 @
b0000000000000000000000000000000000000000000000000000000001010000 D
b0000010100 F
1"+
0"Z
#103000
b0000111111110101011101010001001100000000000000110000101010010011 "U
#103250
0"+
#103250
#103500
b001 =
b0000000000000000000000000000000000000000000000000000000001010000 B
1"+
#103500
#103750
0"+
#103750
#104000
b100 $
1"+
1"Z
#104000
#104250
0"+
#104250
#104500
b001 $
b100 =
b0000111111110101011101010001001100000000000000110000101010010011 @
b0000000000000000000000000000000000000000000000000000000001011000 D
b0000010110 F
1"+
0"Z
#104500
b0000111111110101011101010001001111111111111101010000010100011011 "U
#104750
0"+
#104750
