trace.vcd
$version Generated by VerilatedVcd $end
$date Mon Apr  7 23:55:37 2025
 $end
$timescale   1ps $end

 $scope module TOP $end
  $var wire  1 > clk $end
  $var wire 64 A entry [63:0] $end
  $var wire  1 @ hz32768timer $end
  $var wire 64 p m_axi_acaddr [63:0] $end
  $var wire  1 o m_axi_acready $end
  $var wire  4 r m_axi_acsnoop [3:0] $end
  $var wire  1 n m_axi_acvalid $end
  $var wire 64 ] m_axi_araddr [63:0] $end
  $var wire  2 a m_axi_arburst [1:0] $end
  $var wire  4 c m_axi_arcache [3:0] $end
  $var wire 13 \ m_axi_arid [12:0] $end
  $var wire  8 _ m_axi_arlen [7:0] $end
  $var wire  1 b m_axi_arlock $end
  $var wire  3 d m_axi_arprot [2:0] $end
  $var wire  1 f m_axi_arready $end
  $var wire  3 ` m_axi_arsize [2:0] $end
  $var wire  1 e m_axi_arvalid $end
  $var wire 64 H m_axi_awaddr [63:0] $end
  $var wire  2 L m_axi_awburst [1:0] $end
  $var wire  4 N m_axi_awcache [3:0] $end
  $var wire 13 G m_axi_awid [12:0] $end
  $var wire  8 J m_axi_awlen [7:0] $end
  $var wire  1 M m_axi_awlock $end
  $var wire  3 O m_axi_awprot [2:0] $end
  $var wire  1 Q m_axi_awready $end
  $var wire  3 K m_axi_awsize [2:0] $end
  $var wire  1 P m_axi_awvalid $end
  $var wire 13 X m_axi_bid [12:0] $end
  $var wire  1 [ m_axi_bready $end
  $var wire  2 Y m_axi_bresp [1:0] $end
  $var wire  1 Z m_axi_bvalid $end
  $var wire 64 h m_axi_rdata [63:0] $end
  $var wire 13 g m_axi_rid [12:0] $end
  $var wire  1 k m_axi_rlast $end
  $var wire  1 m m_axi_rready $end
  $var wire  2 j m_axi_rresp [1:0] $end
  $var wire  1 l m_axi_rvalid $end
  $var wire 64 R m_axi_wdata [63:0] $end
  $var wire  1 U m_axi_wlast $end
  $var wire  1 W m_axi_wready $end
  $var wire  8 T m_axi_wstrb [7:0] $end
  $var wire  1 V m_axi_wvalid $end
  $var wire  1 ? reset $end
  $var wire 64 E satp [63:0] $end
  $var wire 64 C stackptr [63:0] $end
  $scope module top $end
   $var wire 32 t ADDR_WIDTH [31:0] $end
   $var wire 32 t DATA_WIDTH [31:0] $end
   $var wire 32 s ID_WIDTH [31:0] $end
   $var wire 32 u STRB_WIDTH [31:0] $end
   $var wire  1 > clk $end
   $var wire 64 "" display_addr [63:0] $end
   $var wire 64 A entry [63:0] $end
   $var wire 64 ~ fetched_instr [63:0] $end
   $var wire  1 @ hz32768timer $end
   $var wire 32 # if_instr [31:0] $end
   $var wire 64 x instruction [63:0] $end
   $var wire 64 p m_axi_acaddr [63:0] $end
   $var wire  1 o m_axi_acready $end
   $var wire  4 r m_axi_acsnoop [3:0] $end
   $var wire  1 n m_axi_acvalid $end
   $var wire 64 ] m_axi_araddr [63:0] $end
   $var wire  2 a m_axi_arburst [1:0] $end
   $var wire  4 c m_axi_arcache [3:0] $end
   $var wire 13 \ m_axi_arid [12:0] $end
   $var wire  8 _ m_axi_arlen [7:0] $end
   $var wire  1 b m_axi_arlock $end
   $var wire  3 d m_axi_arprot [2:0] $end
   $var wire  1 f m_axi_arready $end
   $var wire  3 ` m_axi_arsize [2:0] $end
   $var wire  1 e m_axi_arvalid $end
   $var wire 64 H m_axi_awaddr [63:0] $end
   $var wire  2 L m_axi_awburst [1:0] $end
   $var wire  4 N m_axi_awcache [3:0] $end
   $var wire 13 G m_axi_awid [12:0] $end
   $var wire  8 J m_axi_awlen [7:0] $end
   $var wire  1 M m_axi_awlock $end
   $var wire  3 O m_axi_awprot [2:0] $end
   $var wire  1 Q m_axi_awready $end
   $var wire  3 K m_axi_awsize [2:0] $end
   $var wire  1 P m_axi_awvalid $end
   $var wire 13 X m_axi_bid [12:0] $end
   $var wire  1 [ m_axi_bready $end
   $var wire  2 Y m_axi_bresp [1:0] $end
   $var wire  1 Z m_axi_bvalid $end
   $var wire 64 h m_axi_rdata [63:0] $end
   $var wire 13 g m_axi_rid [12:0] $end
   $var wire  1 k m_axi_rlast $end
   $var wire  1 m m_axi_rready $end
   $var wire  2 j m_axi_rresp [1:0] $end
   $var wire  1 l m_axi_rvalid $end
   $var wire 64 R m_axi_wdata [63:0] $end
   $var wire  1 U m_axi_wlast $end
   $var wire  1 W m_axi_wready $end
   $var wire  8 T m_axi_wstrb [7:0] $end
   $var wire  1 V m_axi_wvalid $end
   $var wire 64 "$ next_display_addr [63:0] $end
   $var wire 64 | next_pc [63:0] $end
   $var wire  3 { next_state [2:0] $end
   $var wire 64 v pc [63:0] $end
   $var wire  1 ? reset $end
   $var wire 64 E satp [63:0] $end
   $var wire 64 C stackptr [63:0] $end
   $var wire  3 z state [2:0] $end
   $scope module Decoder $end
    $var wire 32 "& address [31:0] $end
    $var wire  4 . alu_op [3:0] $end
    $var wire 64 1 decoded_instruction [63:0] $end
    $var wire  3 - funct3 [2:0] $end
    $var wire  7 , funct7 [6:0] $end
    $var wire  4 . id_alu_op_out [3:0] $end
    $var wire  3 - id_reg_funct3_out [2:0] $end
    $var wire  7 , id_reg_funct7_out [6:0] $end
    $var wire 32 * id_reg_imm [31:0] $end
    $var wire  7 + id_reg_opcode_out [6:0] $end
    $var wire  5 ) id_reg_rd_out [4:0] $end
    $var wire  5 ' id_reg_rs1_out [4:0] $end
    $var wire  5 ( id_reg_rs2_out [4:0] $end
    $var wire 32 * imm [31:0] $end
    $var wire 32 / imm_signed [31:0] $end
    $var wire 32 0 imm_unsigned [31:0] $end
    $var wire 32 # input_bin [31:0] $end
    $var wire  7 + opcode [6:0] $end
    $var wire  5 ) rd [4:0] $end
    $var wire  5 ' rs1 [4:0] $end
    $var wire  5 ( rs2 [4:0] $end
   $upscope $end
   $scope module fetch_inst $end
    $var wire  1 > clk $end
    $var wire 64 8 display_addr [63:0] $end
    $var wire 64 A entry [63:0] $end
    $var wire 64 6 fetched_instr [63:0] $end
    $var wire 32 # if_instr [31:0] $end
    $var wire 10 < index [9:0] $end
    $var wire 64 ] m_axi_araddr [63:0] $end
    $var wire  2 a m_axi_arburst [1:0] $end
    $var wire  8 _ m_axi_arlen [7:0] $end
    $var wire  1 f m_axi_arready $end
    $var wire  3 ` m_axi_arsize [2:0] $end
    $var wire  1 e m_axi_arvalid $end
    $var wire 64 h m_axi_rdata [63:0] $end
    $var wire  1 k m_axi_rlast $end
    $var wire  1 m m_axi_rready $end
    $var wire  1 l m_axi_rvalid $end
    $var wire 64 : next_display_addr [63:0] $end
    $var wire 64 % next_pc [63:0] $end
    $var wire  3 $ next_state [2:0] $end
    $var wire 64 4 pc [63:0] $end
    $var wire 10 = pc_fetch [9:0] $end
    $var wire  1 ? reset $end
    $var wire  3 3 state [2:0] $end
   $upscope $end
  $upscope $end
 $upscope $end
$enddefinitions $end


#0
b00000000000000000000000000000000 #
b000 $
b0000000000000000000000000000000000000000000000000000000000000000 %
b00000 '
b00000 (
b00000 )
b00000000000000000000000000000000 *
b0000000 +
b0000000 ,
b000 -
b0000 .
b00000000000000000000000000000000 /
b00000000000000000000000000000000 0
b0000000000000000000000000000000000000000000000000000000000000000 1
b000 3
b0000000000000000000000000000000000000000000000000000000000000000 4
b0000000000000000000000000000000000000000000000000000000000000000 6
b0000000000000000000000000000000000000000000000000000000000000000 8
b0000000000000000000000000000000000000000000000000000000000000000 :
b0000000000 <
b0000000000 =
1>
1?
0@
b0000000000000000000000000000000000000000000000000000000000000000 A
b0000000000000000000000000000000000111111110000000000000000000000 C
b0000000000000000000000000000000000110100010101100111000000000000 E
b0000000000000 G
b0000000000000000000000000000000000000000000000000000000000000000 H
b00000000 J
b000 K
b00 L
0M
b0000 N
b000 O
0P
0Q
b0000000000000000000000000000000000000000000000000000000000000000 R
b00000000 T
0U
0V
0W
b0000000000000 X
b00 Y
0Z
0[
b0000000000000 \
b0000000000000000000000000000000000000000000000000000000000000000 ]
b00000111 _
b000 `
b10 a
0b
b0000 c
b000 d
0e
0f
b0000000000000 g
b0000000000000000000000000000000000000000000000000000000000000000 h
b00 j
0k
0l
0m
0n
0o
b0000000000000000000000000000000000000000000000000000000000000000 p
b0000 r
b00000000000000000000000000001101 s
b00000000000000000000000001000000 t
b00000000000000000000000000001000 u
b0000000000000000000000000000000000000000000000000000000000000000 v
b0000000000000000000000000000000000000000000000000000000000000000 x
b000 z
b000 {
b0000000000000000000000000000000000000000000000000000000000000000 |
b0000000000000000000000000000000000000000000000000000000000000000 ~
b0000000000000000000000000000000000000000000000000000000000000000 ""
b0000000000000000000000000000000000000000000000000000000000000000 "$
b00000000000000000000000000000000 "&
#0
1Q
1W
1f
#250
0>
#250
#500
1>
#500
#750
0>
#750
#1000
1>
#1000
#1250
0>
0?
#1250
#1500
b001 $
1>
1e
#1500
1@
#1750
0>
#1750
#2000
b001 3
1>
0e
#2000
#2250
0>
#2250
#2500
1>
#2500
#2750
0>
#2750
#3000
1>
#3000
#3250
0>
#3250
#3500
1>
#3500
#3750
0>
#3750
#4000
1>
#4000
#4250
0>
#4250
#4500
1>
#4500
#4750
0>
#4750
#5000
1>
#5000
#5250
0>
#5250
#5500
1>
#5500
#5750
0>
#5750
#6000
1>
#6000
#6250
0>
#6250
#6500
1>
#6500
#6750
0>
#6750
#7000
1>
#7000
#7250
0>
#7250
#7500
1>
#7500
#7750
0>
#7750
#8000
1>
#8000
#8250
0>
#8250
#8500
1>
#8500
#8750
0>
#8750
#9000
1>
#9000
#9250
0>
#9250
#9500
1>
#9500
#9750
0>
#9750
#10000
1>
#10000
#10250
0>
#10250
#10500
1>
#10500
#10750
0>
#10750
#11000
1>
#11000
#11250
0>
#11250
#11500
1>
#11500
#11750
0>
#11750
#12000
1>
#12000
#12250
0>
#12250
#12500
1>
#12500
#12750
0>
#12750
#13000
1>
#13000
#13250
0>
#13250
#13500
1>
#13500
#13750
0>
#13750
#14000
1>
#14000
#14250
0>
#14250
#14500
1>
#14500
#14750
0>
#14750
#15000
1>
#15000
#15250
0>
#15250
#15500
1>
#15500
#15750
0>
#15750
#16000
1>
#16000
#16250
0>
#16250
#16500
1>
#16500
#16750
0>
#16750
#17000
1>
#17000
#17250
0>
#17250
#17500
1>
#17500
#17750
0>
#17750
#18000
1>
#18000
#18250
0>
#18250
#18500
1>
#18500
#18750
0>
#18750
#19000
1>
#19000
#19250
0>
#19250
#19500
1>
#19500
#19750
0>
#19750
#20000
1>
#20000
#20250
0>
#20250
#20500
1>
#20500
#20750
0>
#20750
#21000
1>
#21000
#21250
0>
#21250
#21500
1>
#21500
#21750
0>
#21750
#22000
1>
#22000
#22250
0>
#22250
#22500
1>
#22500
#22750
0>
#22750
#23000
1>
#23000
#23250
0>
#23250
#23500
1>
#23500
#23750
0>
#23750
#24000
1>
#24000
#24250
0>
#24250
#24500
1>
#24500
#24750
0>
#24750
#25000
1>
#25000
#25250
0>
#25250
#25500
1>
#25500
#25750
0>
#25750
#26000
1>
#26000
#26250
0>
#26250
#26500
1>
#26500
#26750
0>
#26750
#27000
1>
#27000
#27250
0>
#27250
#27500
1>
#27500
#27750
0>
#27750
#28000
1>
#28000
#28250
0>
#28250
#28500
1>
#28500
#28750
0>
#28750
#29000
1>
#29000
#29250
0>
#29250
#29500
1>
#29500
#29750
0>
#29750
#30000
1>
#30000
#30250
0>
#30250
#30500
1>
#30500
#30750
0>
#30750
#31000
1>
#31000
#31250
0>
#31250
#31500
1>
#31500
#31750
0>
#31750
#32000
1>
#32000
#32250
0>
#32250
#32500
1>
#32500
#32750
0>
#32750
#33000
1>
#33000
#33250
0>
#33250
#33500
1>
#33500
#33750
0>
#33750
#34000
1>
#34000
#34250
0>
#34250
#34500
1>
#34500
#34750
0>
#34750
#35000
1>
#35000
#35250
0>
#35250
#35500
1>
#35500
#35750
0>
#35750
#36000
1>
#36000
#36250
0>
#36250
#36500
1>
#36500
#36750
0>
#36750
#37000
1>
#37000
#37250
0>
#37250
#37500
1>
#37500
#37750
0>
#37750
#38000
1>
#38000
#38250
0>
#38250
#38500
1>
#38500
#38750
0>
#38750
#39000
1>
#39000
#39250
0>
#39250
#39500
1>
#39500
#39750
0>
#39750
#40000
1>
#40000
#40250
0>
#40250
#40500
1>
#40500
#40750
0>
#40750
#41000
1>
#41000
#41250
0>
#41250
#41500
1>
#41500
#41750
0>
#41750
#42000
1>
#42000
#42250
0>
#42250
#42500
1>
#42500
#42750
0>
#42750
#43000
1>
#43000
#43250
0>
#43250
#43500
1>
#43500
#43750
0>
#43750
#44000
1>
#44000
#44250
0>
#44250
#44500
1>
#44500
#44750
0>
#44750
#45000
1>
#45000
#45250
0>
#45250
#45500
1>
#45500
#45750
0>
#45750
#46000
1>
#46000
#46250
0>
#46250
#46500
1>
#46500
#46750
0>
#46750
#47000
1>
#47000
#47250
0>
#47250
#47500
1>
#47500
#47750
0>
#47750
#48000
1>
#48000
#48250
0>
#48250
#48500
1>
#48500
#48750
0>
#48750
#49000
1>
#49000
#49250
0>
#49250
#49500
1>
#49500
b0000010010010000000001000001001111111010000000010000000100010011 h
1l
#49750
0>
#49750
#50000
b100 $
1>
1m
#50000
#50250
0>
#50250
#50500
b11111010000000010000000100010011 #
b001 $
b00010 '
b00010 )
b11111111111111111111111110100000 *
b0010011 +
b0010 .
b11111111111111111111111110100000 /
b0000000000000000000000000000000001000001010001000100010001001001 1
b100 3
b0000010010010000000001000001001111111010000000010000000100010011 6
b0000000000000000000000000000000000000000000000000000000000001000 :
b0000000010 <
1>
0m
#50500
b0000010011010000000001010001001100000100011000000000010010010011 h
#50750
0>
#50750
#51000
b001 3
b0000000000000000000000000000000000000000000000000000000000001000 8
1>
#51000
#51250
0>
#51250
#51500
b100 $
1>
1m
#51500
#51750
0>
#51750
#52000
b001 $
b100 3
b0000010011010000000001010001001100000100011000000000010010010011 6
b0000000000000000000000000000000000000000000000000000000000010000 :
b0000000100 <
1>
0m
#52000
b0000010100000000000001100001001100000100110100000000010110010011 h
#52250
0>
#52250
#52500
b001 3
b0000000000000000000000000000000000000000000000000000000000010000 8
1>
#52500
#52750
0>
#52750
#53000
b100 $
1>
1m
#53000
#53250
0>
#53250
#53500
b001 $
b100 3
b0000010100000000000001100001001100000100110100000000010110010011 6
b0000000000000000000000000000000000000000000000000000000000011000 :
b0000000110 <
1>
0m
#53500
b0000010110000000000001110001001100000010000100000000011010010011 h
#53750
0>
#53750
#54000
b001 3
b0000000000000000000000000000000000000000000000000000000000011000 8
1>
#54000
#54250
0>
#54250
#54500
b100 $
1>
1m
#54500
#54750
0>
#54750
#55000
b001 $
b100 3
b0000010110000000000001110001001100000010000100000000011010010011 6
b0000000000000000000000000000000000000000000000000000000000100000 :
b0000001000 <
1>
0m
#55000
b0000010100110000000010000001001100000101000000000000011110010011 h
#55250
0>
#55250
#55500
b001 3
b0000000000000000000000000000000000000000000000000000000000100000 8
1>
#55500
#55750
0>
#55750
#56000
b100 $
1>
1m
#56000
#56250
0>
#56250
#56500
b001 $
b100 3
b0000010100110000000010000001001100000101000000000000011110010011 6
b0000000000000000000000000000000000000000000000000000000000101000 :
b0000001010 <
1>
0m
#56500
b0000010001010000000010010001001100000100110100000000100010010011 h
#56750
0>
#56750
#57000
b001 3
b0000000000000000000000000000000000000000000000000000000000101000 8
1>
#57000
#57250
0>
#57250
#57500
b100 $
1>
1m
#57500
#57750
0>
#57750
#58000
b001 $
b100 3
b0000010001010000000010010001001100000100110100000000100010010011 6
b0000000000000000000000000000000000000000000000000000000000110000 :
b0000001100 <
1>
0m
#58000
b0000111111110100011100110001001100000010001000000000100110010011 h
#58250
0>
#58250
#58500
b001 3
b0000000000000000000000000000000000000000000000000000000000110000 8
1>
#58500
#58750
0>
#58750
#59000
b100 $
1>
1m
#59000
#59250
0>
#59250
#59500
b001 $
b100 3
b0000111111110100011100110001001100000010001000000000100110010011 6
b0000000000000000000000000000000000000000000000000000000000111000 :
b0000001110 <
1>
0m
#59500
b0000111111110011011100110001001111111111111100110000001100011011 h
1k
#59750
0>
#59750
#60000
b00000100100100000000010000010011 #
b00000 '
b01000 )
b00000000000000000000000001001001 *
b00000000000000000000000001001001 /
b001 3
b0000000000000000000000000000000000000000000000000000000000111000 8
b0000000100 =
1>
#60000
#60250
0>
#60250
#60500
b00000100011000000000010010010011 #
b100 $
b01001 )
b00000000000000000000000001000110 *
b00000000000000000000000001000110 /
b0000001000 =
1>
1m
#60500
#60750
0>
#60750
#61000
b00000100110100000000010100010011 #
b01010 )
b00000000000000000000000001001101 *
b00000000000000000000000001001101 /
b100 3
b0000111111110011011100110001001111111111111100110000001100011011 6
b0000000000000000000000000000000000000000000000000000000001000000 :
b0000010000 <
b0000001100 =
1>
0m
#61000
b000 $
b0000000000000000000000000000000000000000000000000000000001000000 %
0l
#61250
0>
#61250
#61500
b00000100110100000000010110010011 #
b01011 )
b000 3
b0000000000000000000000000000000000000000000000000000000001000000 4
b0000000000000000000000000000000000000000000000000000000001000000 8
b0000010000 =
1>
#61500
#61750
0>
#61750
#62000
b00000101000000000000011000010011 #
b001 $
b01100 )
b00000000000000000000000001010000 *
b00000000000000000000000001010000 /
b0000010100 =
1>
b0000000000000000000000000000000000000000000000000000000001000000 ]
1e
#62000
#62250
0>
#62250
#62500
b00000010000100000000011010010011 #
b01101 )
b00000000000000000000000000100001 *
b00000000000000000000000000100001 /
b001 3
b0000011000 =
1>
0e
#62500
#62750
0>
#62750
#63000
b00000101100000000000011100010011 #
b01110 )
b00000000000000000000000001011000 *
b00000000000000000000000001011000 /
b0000011100 =
1>
#63000
#63250
0>
#63250
#63500
b00000101000000000000011110010011 #
b01111 )
b00000000000000000000000001010000 *
b00000000000000000000000001010000 /
b0000100000 =
1>
#63500
#63750
0>
#63750
#64000
b00000101001100000000100000010011 #
b10000 )
b00000000000000000000000001010011 *
b00000000000000000000000001010011 /
b0000100100 =
1>
#64000
#64250
0>
#64250
#64500
b00000100110100000000100010010011 #
b10001 )
b00000000000000000000000001001101 *
b00000000000000000000000001001101 /
b0000101000 =
1>
#64500
#64750
0>
#64750
#65000
b00000100010100000000100100010011 #
b10010 )
b00000000000000000000000001000101 *
b00000000000000000000000001000101 /
b0000101100 =
1>
#65000
#65250
0>
#65250
#65500
b00000010001000000000100110010011 #
b10011 )
b00000000000000000000000000100010 *
b00000000000000000000000000100010 /
b0000110000 =
1>
#65500
#65750
0>
#65750
#66000
b00001111111101000111001100010011 #
b01000 '
b00110 )
b00000000000000000000000011111111 *
b111 -
b0000 .
b00000000000000000000000011111111 /
b0000000000000000000000000000000001000001010011100100010001001001 1
b0000110100 =
1>
#66000
#66250
0>
#66250
#66500
b11111111111100110000001100011011 #
b00110 '
b11111111111111111111111111111111 *
b0011011 +
b000 -
b0010 .
b11111111111111111111111111111111 /
b0000000000000000000000000100000101000100010001000100100101010111 1
b0000111000 =
1>
#66500
#66750
0>
#66750
#67000
b00001111111100110111001100010011 #
b00000000000000000000000011111111 *
b0010011 +
b111 -
b0000 .
b00000000000000000000000011111111 /
b0000000000000000000000000000000001000001010011100100010001001001 1
b0000111100 =
1>
#67000
#67250
0>
#67250
#67500
b00000000000000000000000000000000 #
b00000 '
b00000 )
b0000000 +
b000 -
b0001000000 =
1>
#67500
#67750
0>
#67750
#68000
b0001000100 =
1>
#68000
#68250
0>
#68250
#68500
b0001001000 =
1>
#68500
#68750
0>
#68750
#69000
b0001001100 =
1>
#69000
#69250
0>
#69250
#69500
b0001010000 =
1>
#69500
#69750
0>
#69750
#70000
b0001010100 =
1>
#70000
#70250
0>
#70250
#70500
b0001011000 =
1>
#70500
#70750
0>
#70750
#71000
b0001011100 =
1>
#71000
#71250
0>
#71250
#71500
b0001100000 =
1>
#71500
#71750
0>
#71750
#72000
b0001100100 =
1>
#72000
#72250
0>
#72250
#72500
b0001101000 =
1>
#72500
#72750
0>
#72750
#73000
b0001101100 =
1>
#73000
#73250
0>
#73250
#73500
b0001110000 =
1>
#73500
#73750
0>
#73750
#74000
b0001110100 =
1>
#74000
#74250
0>
#74250
#74500
b0001111000 =
1>
#74500
#74750
0>
#74750
#75000
b0001111100 =
1>
#75000
#75250
0>
#75250
#75500
b0010000000 =
1>
#75500
#75750
0>
#75750
#76000
b0010000100 =
1>
#76000
#76250
0>
#76250
#76500
b0010001000 =
1>
#76500
#76750
0>
#76750
#77000
b0010001100 =
1>
#77000
#77250
0>
#77250
#77500
b0010010000 =
1>
#77500
#77750
0>
#77750
#78000
b0010010100 =
1>
#78000
#78250
0>
#78250
#78500
b0010011000 =
1>
#78500
#78750
0>
#78750
#79000
b0010011100 =
1>
#79000
#79250
0>
#79250
#79500
b0010100000 =
1>
#79500
#79750
0>
#79750
#80000
b0010100100 =
1>
#80000
#80250
0>
#80250
#80500
b0010101000 =
1>
#80500
#80750
0>
#80750
#81000
b0010101100 =
1>
#81000
#81250
0>
#81250
#81500
b0010110000 =
1>
#81500
#81750
0>
#81750
#82000
b0010110100 =
1>
#82000
#82250
0>
#82250
#82500
b0010111000 =
1>
#82500
#82750
0>
#82750
#83000
b0010111100 =
1>
#83000
#83250
0>
#83250
#83500
b0011000000 =
1>
#83500
#83750
0>
#83750
#84000
b0011000100 =
1>
#84000
#84250
0>
#84250
#84500
b0011001000 =
1>
#84500
#84750
0>
#84750
#85000
b0011001100 =
1>
#85000
#85250
0>
#85250
#85500
b0011010000 =
1>
#85500
#85750
0>
#85750
#86000
b0011010100 =
1>
#86000
#86250
0>
#86250
#86500
b0011011000 =
1>
#86500
#86750
0>
#86750
#87000
b0011011100 =
1>
#87000
#87250
0>
#87250
#87500
b0011100000 =
1>
#87500
#87750
0>
#87750
#88000
b0011100100 =
1>
#88000
#88250
0>
#88250
#88500
b0011101000 =
1>
#88500
#88750
0>
#88750
#89000
b0011101100 =
1>
#89000
#89250
0>
#89250
#89500
b0011110000 =
1>
#89500
#89750
0>
#89750
#90000
b0011110100 =
1>
#90000
#90250
0>
#90250
#90500
b0011111000 =
1>
#90500
#90750
0>
#90750
#91000
b0011111100 =
1>
#91000
#91250
0>
#91250
#91500
b0100000000 =
1>
#91500
#91750
0>
#91750
#92000
b0100000100 =
1>
#92000
#92250
0>
#92250
#92500
b0100001000 =
1>
#92500
#92750
0>
#92750
#93000
b0100001100 =
1>
#93000
#93250
0>
#93250
#93500
b0100010000 =
1>
#93500
#93750
0>
#93750
#94000
b0100010100 =
1>
#94000
#94250
0>
#94250
#94500
b0100011000 =
1>
#94500
#94750
0>
#94750
#95000
b0100011100 =
1>
#95000
#95250
0>
#95250
#95500
b0100100000 =
1>
#95500
#95750
0>
#95750
#96000
b0100100100 =
1>
#96000
#96250
0>
#96250
#96500
b0100101000 =
1>
#96500
#96750
0>
#96750
#97000
b0100101100 =
1>
#97000
#97250
0>
#97250
#97500
b0100110000 =
1>
#97500
#97750
0>
#97750
#98000
b0100110100 =
1>
#98000
#98250
0>
#98250
#98500
b0100111000 =
1>
#98500
#98750
0>
#98750
#99000
b0100111100 =
1>
#99000
#99250
0>
#99250
#99500
b0101000000 =
1>
#99500
#99750
0>
#99750
#100000
b0101000100 =
1>
#100000
#100250
0>
#100250
#100500
b0101001000 =
1>
#100500
b0000111111110100111100110001001100000000000000110000101000010011 h
0k
1l
#100750
0>
#100750
#101000
b100 $
1>
1m
#101000
#101250
0>
#101250
#101500
b001 $
b100 3
b0000111111110100111100110001001100000000000000110000101000010011 6
b0000000000000000000000000000000000000000000000000000000001001000 :
b0000010010 <
1>
0m
#101500
b0000111111110011011100110001001111111111111100110000001100011011 h
#101750
0>
#101750
#102000
b001 3
b0000000000000000000000000000000000000000000000000000000001001000 8
1>
#102000
#102250
0>
#102250
#102500
b100 $
1>
1m
#102500
#102750
0>
#102750
#103000
b001 $
b100 3
b0000111111110011011100110001001111111111111100110000001100011011 6
b0000000000000000000000000000000000000000000000000000000001010000 :
b0000010100 <
1>
0m
#103000
b0000111111110101011101010001001100000000000000110000101010010011 h
#103250
0>
#103250
#103500
b001 3
b0000000000000000000000000000000000000000000000000000000001010000 8
1>
#103500
#103750
0>
#103750
#104000
b100 $
1>
1m
#104000
#104250
0>
#104250
#104500
b001 $
b100 3
b0000111111110101011101010001001100000000000000110000101010010011 6
b0000000000000000000000000000000000000000000000000000000001011000 :
b0000010110 <
1>
0m
#104500
b0000111111110101011101010001001111111111111101010000010100011011 h
#104750
0>
#104750
#105000
b001 3
b0000000000000000000000000000000000000000000000000000000001011000 8
1>
#105000
#105250
0>
#105250
#105500
b100 $
1>
1m
#105500
#105750
0>
#105750
#106000
b001 $
b100 3
b0000111111110101011101010001001111111111111101010000010100011011 6
b0000000000000000000000000000000000000000000000000000000001100000 :
b0000011000 <
1>
0m
#106000
b0000111111110101111101011001001100000000000001010000101100010011 h
#106250
0>
#106250
#106500
b001 3
b0000000000000000000000000000000000000000000000000000000001100000 8
1>
#106500
#106750
0>
#106750
#107000
b100 $
1>
1m
#107000
#107250
0>
#107250
#107500
b001 $
b100 3
b0000111111110101111101011001001100000000000001010000101100010011 6
b0000000000000000000000000000000000000000000000000000000001101000 :
b0000011010 <
1>
0m
#107500
b0000111111110101111101011001001111111111111101011000010110011011 h
#107750
0>
#107750
#108000
b001 3
b0000000000000000000000000000000000000000000000000000000001101000 8
1>
#108000
#108250
0>
#108250
#108500
b100 $
1>
1m
#108500
#108750
0>
#108750
#109000
b001 $
b100 3
b0000111111110101111101011001001111111111111101011000010110011011 6
b0000000000000000000000000000000000000000000000000000000001110000 :
b0000011100 <
1>
0m
#109000
b0000111111110110011101100001001100000000000001011000101110010011 h
#109250
0>
#109250
#109500
b001 3
b0000000000000000000000000000000000000000000000000000000001110000 8
1>
#109500
#109750
0>
#109750
#110000
b100 $
1>
1m
#110000
#110250
0>
#110250
#110500
b001 $
b100 3
b0000111111110110011101100001001100000000000001011000101110010011 6
b0000000000000000000000000000000000000000000000000000000001111000 :
b0000011110 <
1>
0m
#110500
b0000111111110110011101100001001111111111111101100000011000011011 h
1k
#110750
0>
#110750
#111000
b001 3
b0000000000000000000000000000000000000000000000000000000001111000 8
b0101001100 =
1>
#111000
#111250
0>
#111250
#111500
b100 $
b0101010000 =
1>
1m
#111500
#111750
0>
#111750
#112000
b100 3
b0000111111110110011101100001001111111111111101100000011000011011 6
b0000000000000000000000000000000000000000000000000000000010000000 :
b0000100000 <
b0101010100 =
1>
0m
#112000
b000 $
b0000000000000000000000000000000000000000000000000000000010000000 %
0l
#112250
0>
#112250
#112500
b000 3
b0000000000000000000000000000000000000000000000000000000010000000 4
b0000000000000000000000000000000000000000000000000000000010000000 8
b0101011000 =
1>
#112500
#112750
0>
#112750
#113000
b001 $
b0101011100 =
1>
b0000000000000000000000000000000000000000000000000000000010000000 ]
1e
#113000
#113250
0>
#113250
#113500
b001 3
b0101100000 =
1>
0e
#113500
#113750
0>
#113750
#114000
b0101100100 =
1>
#114000
#114250
0>
#114250
#114500
b0101101000 =
1>
#114500
#114750
0>
#114750
#115000
b0101101100 =
1>
#115000
#115250
0>
#115250
#115500
b0101110000 =
1>
#115500
#115750
0>
#115750
#116000
b0101110100 =
1>
#116000
#116250
0>
#116250
#116500
b0101111000 =
1>
#116500
#116750
0>
#116750
#117000
b0101111100 =
1>
#117000
#117250
0>
#117250
#117500
b0110000000 =
1>
#117500
#117750
0>
#117750
#118000
b0110000100 =
1>
#118000
#118250
0>
#118250
#118500
b0110001000 =
1>
#118500
#118750
0>
#118750
#119000
b0110001100 =
1>
#119000
#119250
0>
#119250
#119500
b0110010000 =
1>
#119500
#119750
0>
#119750
#120000
b0110010100 =
1>
#120000
#120250
0>
#120250
#120500
b0110011000 =
1>
#120500
#120750
0>
#120750
#121000
b0110011100 =
1>
#121000
#121250
0>
#121250
#121500
b0110100000 =
1>
#121500
#121750
0>
#121750
#122000
b0110100100 =
1>
#122000
#122250
0>
#122250
#122500
b0110101000 =
1>
#122500
#122750
0>
#122750
#123000
b0110101100 =
1>
#123000
#123250
0>
#123250
#123500
b0110110000 =
1>
#123500
#123750
0>
#123750
#124000
b0110110100 =
1>
#124000
#124250
0>
#124250
#124500
b0110111000 =
1>
#124500
#124750
0>
#124750
#125000
b0110111100 =
1>
#125000
#125250
0>
#125250
#125500
b0111000000 =
1>
#125500
#125750
0>
#125750
#126000
b0111000100 =
1>
#126000
#126250
0>
#126250
#126500
b0111001000 =
1>
#126500
#126750
0>
#126750
#127000
b0111001100 =
1>
#127000
#127250
0>
#127250
#127500
b0111010000 =
1>
#127500
#127750
0>
#127750
#128000
b0111010100 =
1>
#128000
#128250
0>
#128250
#128500
b0111011000 =
1>
#128500
#128750
0>
#128750
#129000
b0111011100 =
1>
#129000
#129250
0>
#129250
#129500
b0111100000 =
1>
#129500
#129750
0>
#129750
#130000
b0111100100 =
1>
#130000
#130250
0>
#130250
#130500
b0111101000 =
1>
#130500
#130750
0>
#130750
#131000
b0111101100 =
1>
#131000
#131250
0>
#131250
#131500
b0111110000 =
1>
#131500
#131750
0>
#131750
#132000
b0111110100 =
1>
#132000
#132250
0>
#132250
#132500
b0111111000 =
1>
#132500
#132750
0>
#132750
#133000
b0111111100 =
1>
#133000
#133250
0>
#133250
#133500
b1000000000 =
1>
#133500
#133750
0>
#133750
#134000
b1000000100 =
1>
#134000
#134250
0>
#134250
#134500
b1000001000 =
1>
#134500
#134750
0>
#134750
#135000
b1000001100 =
1>
#135000
#135250
0>
#135250
#135500
b1000010000 =
1>
#135500
#135750
0>
#135750
#136000
b1000010100 =
1>
#136000
#136250
0>
#136250
#136500
b1000011000 =
1>
#136500
#136750
0>
#136750
#137000
b1000011100 =
1>
#137000
#137250
0>
#137250
#137500
b1000100000 =
1>
#137500
#137750
0>
#137750
#138000
b1000100100 =
1>
#138000
#138250
0>
#138250
#138500
b1000101000 =
1>
#138500
#138750
0>
