trace.vcd
$version Generated by VerilatedVcd $end
$date Fri Mar 28 14:31:11 2025
 $end
$timescale   1ps $end

 $scope module TOP $end
  $var wire  1 - clk $end
  $var wire 64 0 entry [63:0] $end
  $var wire  1 / hz32768timer $end
  $var wire 64 _ m_axi_acaddr [63:0] $end
  $var wire  1 ^ m_axi_acready $end
  $var wire  4 a m_axi_acsnoop [3:0] $end
  $var wire  1 ] m_axi_acvalid $end
  $var wire 64 L m_axi_araddr [63:0] $end
  $var wire  2 P m_axi_arburst [1:0] $end
  $var wire  4 R m_axi_arcache [3:0] $end
  $var wire 13 K m_axi_arid [12:0] $end
  $var wire  8 N m_axi_arlen [7:0] $end
  $var wire  1 Q m_axi_arlock $end
  $var wire  3 S m_axi_arprot [2:0] $end
  $var wire  1 U m_axi_arready $end
  $var wire  3 O m_axi_arsize [2:0] $end
  $var wire  1 T m_axi_arvalid $end
  $var wire 64 7 m_axi_awaddr [63:0] $end
  $var wire  2 ; m_axi_awburst [1:0] $end
  $var wire  4 = m_axi_awcache [3:0] $end
  $var wire 13 6 m_axi_awid [12:0] $end
  $var wire  8 9 m_axi_awlen [7:0] $end
  $var wire  1 < m_axi_awlock $end
  $var wire  3 > m_axi_awprot [2:0] $end
  $var wire  1 @ m_axi_awready $end
  $var wire  3 : m_axi_awsize [2:0] $end
  $var wire  1 ? m_axi_awvalid $end
  $var wire 13 G m_axi_bid [12:0] $end
  $var wire  1 J m_axi_bready $end
  $var wire  2 H m_axi_bresp [1:0] $end
  $var wire  1 I m_axi_bvalid $end
  $var wire 64 W m_axi_rdata [63:0] $end
  $var wire 13 V m_axi_rid [12:0] $end
  $var wire  1 Z m_axi_rlast $end
  $var wire  1 \ m_axi_rready $end
  $var wire  2 Y m_axi_rresp [1:0] $end
  $var wire  1 [ m_axi_rvalid $end
  $var wire 64 A m_axi_wdata [63:0] $end
  $var wire  1 D m_axi_wlast $end
  $var wire  1 F m_axi_wready $end
  $var wire  8 C m_axi_wstrb [7:0] $end
  $var wire  1 E m_axi_wvalid $end
  $var wire  1 . reset $end
  $var wire 64 4 satp [63:0] $end
  $var wire 64 2 stackptr [63:0] $end
  $scope module top $end
   $var wire 32 c ADDR_WIDTH [31:0] $end
   $var wire 32 c DATA_WIDTH [31:0] $end
   $var wire 32 b ID_WIDTH [31:0] $end
   $var wire 32 d STRB_WIDTH [31:0] $end
   $var wire  1 - clk $end
   $var wire 64 + display_addr [63:0] $end
   $var wire 64 0 entry [63:0] $end
   $var wire 64 ) fetched_instr [63:0] $end
   $var wire 64 i fetched_instr_delay [63:0] $end
   $var wire  1 / hz32768timer $end
   $var wire 64 e instruction [63:0] $end
   $var wire 64 _ m_axi_acaddr [63:0] $end
   $var wire  1 ^ m_axi_acready $end
   $var wire  4 a m_axi_acsnoop [3:0] $end
   $var wire  1 ] m_axi_acvalid $end
   $var wire 64 L m_axi_araddr [63:0] $end
   $var wire  2 P m_axi_arburst [1:0] $end
   $var wire  4 R m_axi_arcache [3:0] $end
   $var wire 13 K m_axi_arid [12:0] $end
   $var wire  8 N m_axi_arlen [7:0] $end
   $var wire  1 Q m_axi_arlock $end
   $var wire  3 S m_axi_arprot [2:0] $end
   $var wire  1 U m_axi_arready $end
   $var wire  3 O m_axi_arsize [2:0] $end
   $var wire  1 T m_axi_arvalid $end
   $var wire 64 7 m_axi_awaddr [63:0] $end
   $var wire  2 ; m_axi_awburst [1:0] $end
   $var wire  4 = m_axi_awcache [3:0] $end
   $var wire 13 6 m_axi_awid [12:0] $end
   $var wire  8 9 m_axi_awlen [7:0] $end
   $var wire  1 < m_axi_awlock $end
   $var wire  3 > m_axi_awprot [2:0] $end
   $var wire  1 @ m_axi_awready $end
   $var wire  3 : m_axi_awsize [2:0] $end
   $var wire  1 ? m_axi_awvalid $end
   $var wire 13 G m_axi_bid [12:0] $end
   $var wire  1 J m_axi_bready $end
   $var wire  2 H m_axi_bresp [1:0] $end
   $var wire  1 I m_axi_bvalid $end
   $var wire 64 W m_axi_rdata [63:0] $end
   $var wire 13 V m_axi_rid [12:0] $end
   $var wire  1 Z m_axi_rlast $end
   $var wire  1 \ m_axi_rready $end
   $var wire  2 Y m_axi_rresp [1:0] $end
   $var wire  1 [ m_axi_rvalid $end
   $var wire 64 A m_axi_wdata [63:0] $end
   $var wire  1 D m_axi_wlast $end
   $var wire  1 F m_axi_wready $end
   $var wire  8 C m_axi_wstrb [7:0] $end
   $var wire  1 E m_axi_wvalid $end
   $var wire 64 k next_display_addr [63:0] $end
   $var wire 64 ' next_pc [63:0] $end
   $var wire  3 & next_state [2:0] $end
   $var wire 64 # pc [63:0] $end
   $var wire  1 g read_address_handshake_flag $end
   $var wire  1 h read_data_handshake_flag $end
   $var wire  1 . reset $end
   $var wire 64 4 satp [63:0] $end
   $var wire 64 2 stackptr [63:0] $end
   $var wire  3 % state [2:0] $end
  $upscope $end
 $upscope $end
$enddefinitions $end


#0
b0000000000000000000000000000000000000000000000000000000000000000 #
b000 %
b000 &
b0000000000000000000000000000000000000000000000000000000000000000 '
b0000000000000000000000000000000000000000000000000000000000000000 )
b0000000000000000000000000000000000000000000000000000000000000000 +
1-
1.
0/
b0000000000000000000000000000000000000000000000000000000000000000 0
b0000000000000000000000000000000000111111110000000000000000000000 2
b0000000000000000000000000000000000110100010101100111000000000000 4
b0000000000000 6
b0000000000000000000000000000000000000000000000000000000000000000 7
b00000000 9
b000 :
b00 ;
0<
b0000 =
b000 >
0?
0@
b0000000000000000000000000000000000000000000000000000000000000000 A
b00000000 C
0D
0E
0F
b0000000000000 G
b00 H
0I
0J
b0000000000000 K
b0000000000000000000000000000000000000000000000000000000000000000 L
b00000000 N
b000 O
b00 P
0Q
b0000 R
b000 S
0T
0U
b0000000000000 V
b0000000000000000000000000000000000000000000000000000000000000000 W
b00 Y
0Z
0[
0\
0]
0^
b0000000000000000000000000000000000000000000000000000000000000000 _
b0000 a
b00000000000000000000000000001101 b
b00000000000000000000000001000000 c
b00000000000000000000000000001000 d
b0000000000000000000000000000000000000000000000000000000000000000 e
0g
0h
b0000000000000000000000000000000000000000000000000000000000000000 i
b0000000000000000000000000000000000000000000000000000000000000000 k
#0
1@
1F
1U
#250
0-
#250
#500
1-
#500
#750
0-
#750
#1000
1-
#1000
#1250
0-
0.
#1250
#1500
1-
b00000111 N
b10 P
1T
#1500
1/
#1750
0-
#1750
#2000
b001 &
1-
#2000
#2250
0-
#2250
#2500
b001 %
1-
#2500
#2750
0-
#2750
#3000
b010 &
1-
0T
#3000
#3250
0-
#3250
#3500
b010 %
1-
#3500
#3750
0-
#3750
#4000
1-
1\
