trace.vcd
$version Generated by VerilatedVcd $end
$date Sun Apr  6 05:35:42 2025
 $end
$timescale   1ps $end

 $scope module TOP $end
  $var wire  1 4 clk $end
  $var wire 64 7 entry [63:0] $end
  $var wire  1 6 hz32768timer $end
  $var wire 64 f m_axi_acaddr [63:0] $end
  $var wire  1 e m_axi_acready $end
  $var wire  4 h m_axi_acsnoop [3:0] $end
  $var wire  1 d m_axi_acvalid $end
  $var wire 64 S m_axi_araddr [63:0] $end
  $var wire  2 W m_axi_arburst [1:0] $end
  $var wire  4 Y m_axi_arcache [3:0] $end
  $var wire 13 R m_axi_arid [12:0] $end
  $var wire  8 U m_axi_arlen [7:0] $end
  $var wire  1 X m_axi_arlock $end
  $var wire  3 Z m_axi_arprot [2:0] $end
  $var wire  1 \ m_axi_arready $end
  $var wire  3 V m_axi_arsize [2:0] $end
  $var wire  1 [ m_axi_arvalid $end
  $var wire 64 > m_axi_awaddr [63:0] $end
  $var wire  2 B m_axi_awburst [1:0] $end
  $var wire  4 D m_axi_awcache [3:0] $end
  $var wire 13 = m_axi_awid [12:0] $end
  $var wire  8 @ m_axi_awlen [7:0] $end
  $var wire  1 C m_axi_awlock $end
  $var wire  3 E m_axi_awprot [2:0] $end
  $var wire  1 G m_axi_awready $end
  $var wire  3 A m_axi_awsize [2:0] $end
  $var wire  1 F m_axi_awvalid $end
  $var wire 13 N m_axi_bid [12:0] $end
  $var wire  1 Q m_axi_bready $end
  $var wire  2 O m_axi_bresp [1:0] $end
  $var wire  1 P m_axi_bvalid $end
  $var wire 64 ^ m_axi_rdata [63:0] $end
  $var wire 13 ] m_axi_rid [12:0] $end
  $var wire  1 a m_axi_rlast $end
  $var wire  1 c m_axi_rready $end
  $var wire  2 ` m_axi_rresp [1:0] $end
  $var wire  1 b m_axi_rvalid $end
  $var wire 64 H m_axi_wdata [63:0] $end
  $var wire  1 K m_axi_wlast $end
  $var wire  1 M m_axi_wready $end
  $var wire  8 J m_axi_wstrb [7:0] $end
  $var wire  1 L m_axi_wvalid $end
  $var wire  1 5 reset $end
  $var wire 64 ; satp [63:0] $end
  $var wire 64 9 stackptr [63:0] $end
  $scope module top $end
   $var wire 32 j ADDR_WIDTH [31:0] $end
   $var wire 32 j DATA_WIDTH [31:0] $end
   $var wire 32 i ID_WIDTH [31:0] $end
   $var wire 32 k STRB_WIDTH [31:0] $end
   $var wire  1 4 clk $end
   $var wire 64 v display_addr [63:0] $end
   $var wire 64 7 entry [63:0] $end
   $var wire 64 t fetched_instr [63:0] $end
   $var wire  1 6 hz32768timer $end
   $var wire 64 - if_address [63:0] $end
   $var wire 64 + if_instr [63:0] $end
   $var wire 64 n instruction [63:0] $end
   $var wire 64 f m_axi_acaddr [63:0] $end
   $var wire  1 e m_axi_acready $end
   $var wire  4 h m_axi_acsnoop [3:0] $end
   $var wire  1 d m_axi_acvalid $end
   $var wire 64 S m_axi_araddr [63:0] $end
   $var wire  2 W m_axi_arburst [1:0] $end
   $var wire  4 Y m_axi_arcache [3:0] $end
   $var wire 13 R m_axi_arid [12:0] $end
   $var wire  8 U m_axi_arlen [7:0] $end
   $var wire  1 X m_axi_arlock $end
   $var wire  3 Z m_axi_arprot [2:0] $end
   $var wire  1 \ m_axi_arready $end
   $var wire  3 V m_axi_arsize [2:0] $end
   $var wire  1 [ m_axi_arvalid $end
   $var wire 64 > m_axi_awaddr [63:0] $end
   $var wire  2 B m_axi_awburst [1:0] $end
   $var wire  4 D m_axi_awcache [3:0] $end
   $var wire 13 = m_axi_awid [12:0] $end
   $var wire  8 @ m_axi_awlen [7:0] $end
   $var wire  1 C m_axi_awlock $end
   $var wire  3 E m_axi_awprot [2:0] $end
   $var wire  1 G m_axi_awready $end
   $var wire  3 A m_axi_awsize [2:0] $end
   $var wire  1 F m_axi_awvalid $end
   $var wire 13 N m_axi_bid [12:0] $end
   $var wire  1 Q m_axi_bready $end
   $var wire  2 O m_axi_bresp [1:0] $end
   $var wire  1 P m_axi_bvalid $end
   $var wire 64 ^ m_axi_rdata [63:0] $end
   $var wire 13 ] m_axi_rid [12:0] $end
   $var wire  1 a m_axi_rlast $end
   $var wire  1 c m_axi_rready $end
   $var wire  2 ` m_axi_rresp [1:0] $end
   $var wire  1 b m_axi_rvalid $end
   $var wire 64 H m_axi_wdata [63:0] $end
   $var wire  1 K m_axi_wlast $end
   $var wire  1 M m_axi_wready $end
   $var wire  8 J m_axi_wstrb [7:0] $end
   $var wire  1 L m_axi_wvalid $end
   $var wire 64 x next_display_addr [63:0] $end
   $var wire 64 r next_pc [63:0] $end
   $var wire  3 q next_state [2:0] $end
   $var wire 64 l pc [63:0] $end
   $var wire  1 5 reset $end
   $var wire 64 ; satp [63:0] $end
   $var wire 64 9 stackptr [63:0] $end
   $var wire  3 p state [2:0] $end
   $scope module IF_ID_register $end
    $var wire  1 4 clk $end
    $var wire 64 + if_id_instruction_in [63:0] $end
    $var wire 64 ( if_id_instruction_out [63:0] $end
    $var wire 64 - if_id_pc_in [63:0] $end
    $var wire 64 & if_id_pc_out [63:0] $end
    $var wire 32 * instruction_reg [31:0] $end
    $var wire 64 & pc_reg [63:0] $end
    $var wire  1 5 reset $end
   $upscope $end
   $scope module fetch_inst $end
    $var wire  1 4 clk $end
    $var wire 64 - display_addr [63:0] $end
    $var wire 64 7 entry [63:0] $end
    $var wire 64 + fetched_instr [63:0] $end
    $var wire 64 - if_address [63:0] $end
    $var wire 64 + if_instr [63:0] $end
    $var wire 64 S m_axi_araddr [63:0] $end
    $var wire  2 W m_axi_arburst [1:0] $end
    $var wire  8 U m_axi_arlen [7:0] $end
    $var wire  1 \ m_axi_arready $end
    $var wire  3 V m_axi_arsize [2:0] $end
    $var wire  1 [ m_axi_arvalid $end
    $var wire 64 ^ m_axi_rdata [63:0] $end
    $var wire  1 a m_axi_rlast $end
    $var wire  1 c m_axi_rready $end
    $var wire  1 b m_axi_rvalid $end
    $var wire 64 2 next_display_addr [63:0] $end
    $var wire 64 $ next_pc [63:0] $end
    $var wire  3 # next_state [2:0] $end
    $var wire 64 0 pc [63:0] $end
    $var wire  1 5 reset $end
    $var wire  3 / state [2:0] $end
   $upscope $end
  $upscope $end
 $upscope $end
$enddefinitions $end


#0
b000 #
b0000000000000000000000000000000000000000000000000000000000000000 $
b0000000000000000000000000000000000000000000000000000000000000000 &
b0000000000000000000000000000000000000000000000000000000000000000 (
b00000000000000000000000000000000 *
b0000000000000000000000000000000000000000000000000000000000000000 +
b0000000000000000000000000000000000000000000000000000000000000000 -
b000 /
b0000000000000000000000000000000000000000000000000000000000000000 0
b0000000000000000000000000000000000000000000000000000000000000000 2
14
15
06
b0000000000000000000000000000000000000000000000000000000000000000 7
b0000000000000000000000000000000000111111110000000000000000000000 9
b0000000000000000000000000000000000110100010101100111000000000000 ;
b0000000000000 =
b0000000000000000000000000000000000000000000000000000000000000000 >
b00000000 @
b000 A
b00 B
0C
b0000 D
b000 E
0F
0G
b0000000000000000000000000000000000000000000000000000000000000000 H
b00000000 J
0K
0L
0M
b0000000000000 N
b00 O
0P
0Q
b0000000000000 R
b0000000000000000000000000000000000000000000000000000000000000000 S
b00000111 U
b000 V
b10 W
0X
b0000 Y
b000 Z
0[
0\
b0000000000000 ]
b0000000000000000000000000000000000000000000000000000000000000000 ^
b00 `
0a
0b
0c
0d
0e
b0000000000000000000000000000000000000000000000000000000000000000 f
b0000 h
b00000000000000000000000000001101 i
b00000000000000000000000001000000 j
b00000000000000000000000000001000 k
b0000000000000000000000000000000000000000000000000000000000000000 l
b0000000000000000000000000000000000000000000000000000000000000000 n
b000 p
b000 q
b0000000000000000000000000000000000000000000000000000000000000000 r
b0000000000000000000000000000000000000000000000000000000000000000 t
b0000000000000000000000000000000000000000000000000000000000000000 v
b0000000000000000000000000000000000000000000000000000000000000000 x
#0
1G
1M
1\
#250
04
#250
#500
14
#500
#750
04
#750
#1000
14
#1000
#1250
04
05
#1250
#1500
b001 #
14
1[
#1500
16
#1750
04
#1750
#2000
b001 /
14
0[
#2000
#2250
04
#2250
#2500
14
#2500
#2750
04
#2750
#3000
14
#3000
#3250
04
#3250
#3500
14
#3500
#3750
04
#3750
#4000
14
#4000
#4250
04
#4250
#4500
14
#4500
#4750
04
#4750
#5000
14
#5000
#5250
04
#5250
#5500
14
#5500
#5750
04
#5750
#6000
14
#6000
#6250
04
#6250
#6500
14
#6500
#6750
04
#6750
#7000
14
#7000
#7250
04
#7250
#7500
14
#7500
#7750
04
#7750
#8000
14
#8000
#8250
04
#8250
#8500
14
#8500
#8750
04
#8750
#9000
14
#9000
#9250
04
#9250
#9500
14
#9500
#9750
04
#9750
#10000
14
#10000
#10250
04
#10250
#10500
14
#10500
#10750
04
#10750
#11000
14
#11000
#11250
04
#11250
#11500
14
#11500
#11750
04
#11750
#12000
14
#12000
#12250
04
#12250
#12500
14
#12500
#12750
04
#12750
#13000
14
#13000
#13250
04
#13250
#13500
14
#13500
#13750
04
#13750
#14000
14
#14000
#14250
04
#14250
#14500
14
#14500
#14750
04
#14750
#15000
14
#15000
#15250
04
#15250
#15500
14
#15500
#15750
04
#15750
#16000
14
#16000
#16250
04
#16250
#16500
14
#16500
#16750
04
#16750
#17000
14
#17000
#17250
04
#17250
#17500
14
#17500
#17750
04
#17750
#18000
14
#18000
#18250
04
#18250
#18500
14
#18500
#18750
04
#18750
#19000
14
#19000
#19250
04
#19250
#19500
14
#19500
#19750
04
#19750
#20000
14
#20000
#20250
04
#20250
#20500
14
#20500
#20750
04
#20750
#21000
14
#21000
#21250
04
#21250
#21500
14
#21500
#21750
04
#21750
#22000
14
#22000
#22250
04
#22250
#22500
14
#22500
#22750
04
#22750
#23000
14
#23000
#23250
04
#23250
#23500
14
#23500
#23750
04
#23750
#24000
14
#24000
#24250
04
#24250
#24500
14
#24500
#24750
04
#24750
#25000
14
#25000
#25250
04
#25250
#25500
14
#25500
#25750
04
#25750
#26000
14
#26000
#26250
04
#26250
#26500
14
#26500
#26750
04
#26750
#27000
14
#27000
#27250
04
#27250
#27500
14
#27500
#27750
04
#27750
#28000
14
#28000
#28250
04
#28250
#28500
14
#28500
#28750
04
#28750
#29000
14
#29000
#29250
04
#29250
#29500
14
#29500
#29750
04
#29750
#30000
14
#30000
#30250
04
#30250
#30500
14
#30500
#30750
04
#30750
#31000
14
#31000
#31250
04
#31250
#31500
14
#31500
#31750
04
#31750
#32000
14
#32000
#32250
04
#32250
#32500
14
#32500
#32750
04
#32750
#33000
14
#33000
#33250
04
#33250
#33500
14
#33500
#33750
04
#33750
#34000
14
#34000
#34250
04
#34250
#34500
14
#34500
#34750
04
#34750
#35000
14
#35000
#35250
04
#35250
#35500
14
#35500
#35750
04
#35750
#36000
14
#36000
#36250
04
#36250
#36500
14
#36500
#36750
04
#36750
#37000
14
#37000
#37250
04
#37250
#37500
14
#37500
#37750
04
#37750
#38000
14
#38000
#38250
04
#38250
#38500
14
#38500
#38750
04
#38750
#39000
14
#39000
#39250
04
#39250
#39500
14
#39500
#39750
04
#39750
#40000
14
#40000
#40250
04
#40250
#40500
14
#40500
#40750
04
#40750
#41000
14
#41000
#41250
04
#41250
#41500
14
#41500
#41750
04
#41750
#42000
14
#42000
#42250
04
#42250
#42500
14
#42500
#42750
04
#42750
#43000
14
#43000
#43250
04
#43250
#43500
14
#43500
#43750
04
#43750
#44000
14
#44000
#44250
04
#44250
#44500
14
#44500
#44750
04
#44750
#45000
14
#45000
#45250
04
#45250
#45500
14
#45500
#45750
04
#45750
#46000
14
#46000
#46250
04
#46250
#46500
14
#46500
#46750
04
#46750
#47000
14
#47000
#47250
04
#47250
#47500
14
#47500
#47750
04
#47750
#48000
14
#48000
#48250
04
#48250
#48500
14
#48500
#48750
04
#48750
#49000
14
#49000
#49250
04
#49250
#49500
14
#49500
b0000000000010001001111000010001111111110000000010000000100010011 ^
1b
#49750
04
#49750
#50000
b100 #
14
1c
#50000
#50250
04
#50250
#50500
b001 #
b0000000000010001001111000010001111111110000000010000000100010011 +
b100 /
b0000000000000000000000000000000000000000000000000000000000001000 2
14
0c
#50500
b0000001000000001000001000001001100000000100000010011100000100011 ^
#50750
04
#50750
#51000
b0000000000000000000000000000000011111110000000010000000100010011 (
b11111110000000010000000100010011 *
b0000000000000000000000000000000000000000000000000000000000001000 -
b001 /
14
#51000
#51250
04
#51250
#51500
b100 #
b0000000000000000000000000000000000000000000000000000000000001000 &
14
1c
#51500
#51750
04
#51750
#52000
b001 #
b0000001000000001000001000001001100000000100000010011100000100011 +
b100 /
b0000000000000000000000000000000000000000000000000000000000010000 2
14
0c
#52000
b1111111010110100001100000010001111111110101001000010011000100011 ^
#52250
04
#52250
#52500
b0000000000000000000000000000000000000000100000010011100000100011 (
b00000000100000010011100000100011 *
b0000000000000000000000000000000000000000000000000000000000010000 -
b001 /
14
#52500
#52750
04
#52750
#53000
b100 #
b0000000000000000000000000000000000000000000000000000000000010000 &
14
1c
#53000
#53250
04
#53250
#53500
b001 #
b1111111010110100001100000010001111111110101001000010011000100011 +
b100 /
b0000000000000000000000000000000000000000000000000000000000011000 2
14
0c
#53500
b0000000000000111100001010001001100000000000000000000011110110111 ^
#53750
04
#53750
#54000
b0000000000000000000000000000000011111110101001000010011000100011 (
b11111110101001000010011000100011 *
b0000000000000000000000000000000000000000000000000000000000011000 -
b001 /
14
#54000
#54250
04
#54250
#54500
b100 #
b0000000000000000000000000000000000000000000000000000000000011000 &
14
1c
#54500
#54750
04
#54750
#55000
b001 #
b0000000000000111100001010001001100000000000000000000011110110111 +
b100 /
b0000000000000000000000000000000000000000000000000000000000100000 2
14
0c
#55000
b0000000000000011000000001110011100000000000000000000001100010111 ^
#55250
04
#55250
#55500
b0000000000000000000000000000000000000000000000000000011110110111 (
b00000000000000000000011110110111 *
b0000000000000000000000000000000000000000000000000000000000100000 -
b001 /
14
#55500
#55750
04
#55750
#56000
b100 #
b0000000000000000000000000000000000000000000000000000000000100000 &
14
1c
#56000
#56250
04
#56250
#56500
b001 #
b0000000000000011000000001110011100000000000000000000001100010111 +
b100 /
b0000000000000000000000000000000000000000000000000000000000101000 2
14
0c
#56500
b0000000000000111100001010001001100000000000000000000011110010011 ^
#56750
04
#56750
#57000
b0000000000000000000000000000000000000000000000000000001100010111 (
b00000000000000000000001100010111 *
b0000000000000000000000000000000000000000000000000000000000101000 -
b001 /
14
#57000
#57250
04
#57250
#57500
b100 #
b0000000000000000000000000000000000000000000000000000000000101000 &
14
1c
#57500
#57750
04
#57750
#58000
b001 #
b0000000000000111100001010001001100000000000000000000011110010011 +
b100 /
b0000000000000000000000000000000000000000000000000000000000110000 2
14
0c
#58000
b0000000100000001001101000000001100000001100000010011000010000011 ^
#58250
04
#58250
#58500
b0000000000000000000000000000000000000000000000000000011110010011 (
b00000000000000000000011110010011 *
b0000000000000000000000000000000000000000000000000000000000110000 -
b001 /
14
#58500
#58750
04
#58750
#59000
b100 #
b0000000000000000000000000000000000000000000000000000000000110000 &
14
1c
#59000
#59250
04
#59250
#59500
b001 #
b0000000100000001001101000000001100000001100000010011000010000011 +
b100 /
b0000000000000000000000000000000000000000000000000000000000111000 2
14
0c
#59500
b0000000000000000100000000110011100000010000000010000000100010011 ^
1a
#59750
04
#59750
#60000
b0000000000000000000000000000000000000001100000010011000010000011 (
b00000001100000010011000010000011 *
b0000000000000000000000000000000000000000000000000000000000111000 -
b001 /
14
#60000
#60250
04
#60250
#60500
b100 #
b0000000000000000000000000000000000000000000000000000000000111000 &
14
1c
#60500
#60750
04
#60750
#61000
b0000000000000000100000000110011100000010000000010000000100010011 +
b100 /
b0000000000000000000000000000000000000000000000000000000001000000 2
14
0c
#61000
b000 #
b0000000000000000000000000000000000000000000000000000000001000000 $
0b
#61250
04
#61250
#61500
b0000000000000000000000000000000000000010000000010000000100010011 (
b00000010000000010000000100010011 *
b0000000000000000000000000000000000000000000000000000000001000000 -
b000 /
b0000000000000000000000000000000000000000000000000000000001000000 0
14
#61500
#61750
04
#61750
#62000
b001 #
b0000000000000000000000000000000000000000000000000000000001000000 &
14
b0000000000000000000000000000000000000000000000000000000001000000 S
1[
#62000
#62250
04
#62250
#62500
b001 /
14
0[
