trace.vcd
$version Generated by VerilatedVcd $end
$date Tue Apr  8 18:24:16 2025
 $end
$timescale   1ps $end

 $scope module TOP $end
  $var wire  1 "3 clk $end
  $var wire 64 "6 entry [63:0] $end
  $var wire  1 "5 hz32768timer $end
  $var wire 64 "e m_axi_acaddr [63:0] $end
  $var wire  1 "d m_axi_acready $end
  $var wire  4 "g m_axi_acsnoop [3:0] $end
  $var wire  1 "c m_axi_acvalid $end
  $var wire 64 "R m_axi_araddr [63:0] $end
  $var wire  2 "V m_axi_arburst [1:0] $end
  $var wire  4 "X m_axi_arcache [3:0] $end
  $var wire 13 "Q m_axi_arid [12:0] $end
  $var wire  8 "T m_axi_arlen [7:0] $end
  $var wire  1 "W m_axi_arlock $end
  $var wire  3 "Y m_axi_arprot [2:0] $end
  $var wire  1 "[ m_axi_arready $end
  $var wire  3 "U m_axi_arsize [2:0] $end
  $var wire  1 "Z m_axi_arvalid $end
  $var wire 64 "= m_axi_awaddr [63:0] $end
  $var wire  2 "A m_axi_awburst [1:0] $end
  $var wire  4 "C m_axi_awcache [3:0] $end
  $var wire 13 "< m_axi_awid [12:0] $end
  $var wire  8 "? m_axi_awlen [7:0] $end
  $var wire  1 "B m_axi_awlock $end
  $var wire  3 "D m_axi_awprot [2:0] $end
  $var wire  1 "F m_axi_awready $end
  $var wire  3 "@ m_axi_awsize [2:0] $end
  $var wire  1 "E m_axi_awvalid $end
  $var wire 13 "M m_axi_bid [12:0] $end
  $var wire  1 "P m_axi_bready $end
  $var wire  2 "N m_axi_bresp [1:0] $end
  $var wire  1 "O m_axi_bvalid $end
  $var wire 64 "] m_axi_rdata [63:0] $end
  $var wire 13 "\ m_axi_rid [12:0] $end
  $var wire  1 "` m_axi_rlast $end
  $var wire  1 "b m_axi_rready $end
  $var wire  2 "_ m_axi_rresp [1:0] $end
  $var wire  1 "a m_axi_rvalid $end
  $var wire 64 "G m_axi_wdata [63:0] $end
  $var wire  1 "J m_axi_wlast $end
  $var wire  1 "L m_axi_wready $end
  $var wire  8 "I m_axi_wstrb [7:0] $end
  $var wire  1 "K m_axi_wvalid $end
  $var wire  1 "4 reset $end
  $var wire 64 ": satp [63:0] $end
  $var wire 64 "8 stackptr [63:0] $end
  $scope module top $end
   $var wire 32 "i ADDR_WIDTH [31:0] $end
   $var wire 32 "i DATA_WIDTH [31:0] $end
   $var wire 32 "h ID_WIDTH [31:0] $end
   $var wire 32 "j STRB_WIDTH [31:0] $end
   $var wire  1 0 alu_src_control $end
   $var wire  1 "3 clk $end
   $var wire 64 "6 entry [63:0] $end
   $var wire 64 5 ex_alu_result_out [63:0] $end
   $var wire 64 7 ex_operand_2_in [63:0] $end
   $var wire  1 "5 hz32768timer $end
   $var wire  4 . id_alu_op_out [3:0] $end
   $var wire  3 "k id_reg_funct3_out [2:0] $end
   $var wire  7 - id_reg_funct7_out [6:0] $end
   $var wire 32 * id_reg_imm_signed_out [31:0] $end
   $var wire 32 + id_reg_imm_unsigned_out [31:0] $end
   $var wire  7 , id_reg_opcode_out [6:0] $end
   $var wire  5 ) id_reg_rd_out [4:0] $end
   $var wire  5 ' id_reg_rs1_out [4:0] $end
   $var wire  5 ( id_reg_rs2_out [4:0] $end
   $var wire 64 A if_address_out [63:0] $end
   $var wire 32 # if_instr [31:0] $end
   $var wire 64 "e m_axi_acaddr [63:0] $end
   $var wire  1 "d m_axi_acready $end
   $var wire  4 "g m_axi_acsnoop [3:0] $end
   $var wire  1 "c m_axi_acvalid $end
   $var wire 64 "R m_axi_araddr [63:0] $end
   $var wire  2 "V m_axi_arburst [1:0] $end
   $var wire  4 "X m_axi_arcache [3:0] $end
   $var wire 13 "Q m_axi_arid [12:0] $end
   $var wire  8 "T m_axi_arlen [7:0] $end
   $var wire  1 "W m_axi_arlock $end
   $var wire  3 "Y m_axi_arprot [2:0] $end
   $var wire  1 "[ m_axi_arready $end
   $var wire  3 "U m_axi_arsize [2:0] $end
   $var wire  1 "Z m_axi_arvalid $end
   $var wire 64 "= m_axi_awaddr [63:0] $end
   $var wire  2 "A m_axi_awburst [1:0] $end
   $var wire  4 "C m_axi_awcache [3:0] $end
   $var wire 13 "< m_axi_awid [12:0] $end
   $var wire  8 "? m_axi_awlen [7:0] $end
   $var wire  1 "B m_axi_awlock $end
   $var wire  3 "D m_axi_awprot [2:0] $end
   $var wire  1 "F m_axi_awready $end
   $var wire  3 "@ m_axi_awsize [2:0] $end
   $var wire  1 "E m_axi_awvalid $end
   $var wire 13 "M m_axi_bid [12:0] $end
   $var wire  1 "P m_axi_bready $end
   $var wire  2 "N m_axi_bresp [1:0] $end
   $var wire  1 "O m_axi_bvalid $end
   $var wire 64 "] m_axi_rdata [63:0] $end
   $var wire 13 "\ m_axi_rid [12:0] $end
   $var wire  1 "` m_axi_rlast $end
   $var wire  1 "b m_axi_rready $end
   $var wire  2 "_ m_axi_rresp [1:0] $end
   $var wire  1 "a m_axi_rvalid $end
   $var wire 64 "G m_axi_wdata [63:0] $end
   $var wire  1 "J m_axi_wlast $end
   $var wire  1 "L m_axi_wready $end
   $var wire  8 "I m_axi_wstrb [7:0] $end
   $var wire  1 "K m_axi_wvalid $end
   $var wire  1 "l mem_read_control $end
   $var wire  1 "n mem_to_reg_control $end
   $var wire  1 "m mem_write_control $end
   $var wire 64 1 regA_data_out [63:0] $end
   $var wire 64 3 regB_data_out [63:0] $end
   $var wire  1 / reg_write_control $end
   $var wire  1 "4 reset $end
   $var wire 64 ": satp [63:0] $end
   $var wire 64 "8 stackptr [63:0] $end
   $scope module ALU $end
    $var wire  4 . ex_alu_op_in [3:0] $end
    $var wire 64 5 ex_alu_result_out [63:0] $end
    $var wire 64 1 ex_operand1_in [63:0] $end
    $var wire 64 7 ex_operand2_in [63:0] $end
    $var wire 64 5 result [63:0] $end
   $upscope $end
   $scope module ControlUnit $end
    $var wire  1 0 alu_src $end
    $var wire  1 0 alu_src_control $end
    $var wire  3 "p funct3 [2:0] $end
    $var wire  7 "o funct7 [6:0] $end
    $var wire 32 # if_instr [31:0] $end
    $var wire  1 = mem_read $end
    $var wire  1 = mem_read_control $end
    $var wire  1 ? mem_to_reg $end
    $var wire  1 ? mem_to_reg_control $end
    $var wire  1 > mem_write $end
    $var wire  1 > mem_write_control $end
    $var wire  7 @ opcode [6:0] $end
    $var wire  1 / reg_write $end
    $var wire  1 / reg_write_control $end
   $upscope $end
   $scope module Decoder $end
    $var wire 32 O address [31:0] $end
    $var wire  4 . alu_op [3:0] $end
    $var wire 64 ; decoded_instruction [63:0] $end
    $var wire  3 9 funct3 [2:0] $end
    $var wire  7 : funct7 [6:0] $end
    $var wire  4 . id_alu_op_out [3:0] $end
    $var wire  3 9 id_reg_funct3_out [2:0] $end
    $var wire  7 - id_reg_funct7_out [6:0] $end
    $var wire 32 * id_reg_imm_signed_out [31:0] $end
    $var wire 32 + id_reg_imm_unsigned_out [31:0] $end
    $var wire  7 , id_reg_opcode_out [6:0] $end
    $var wire  5 ) id_reg_rd_out [4:0] $end
    $var wire  5 ' id_reg_rs1_out [4:0] $end
    $var wire  5 ( id_reg_rs2_out [4:0] $end
    $var wire 32 * imm_signed [31:0] $end
    $var wire 32 + imm_unsigned [31:0] $end
    $var wire 32 # input_bin [31:0] $end
    $var wire  7 , opcode [6:0] $end
    $var wire  5 ) rd [4:0] $end
    $var wire  5 ' rs1 [4:0] $end
    $var wire  5 ( rs2 [4:0] $end
   $upscope $end
   $scope module RegisterFile $end
    $var wire  1 "3 clk $end
    $var wire 32 "2 i [31:0] $end
    $var wire  5 ) rd_addr_in [4:0] $end
    $var wire  5 ' regA_addr_in [4:0] $end
    $var wire 64 1 regA_data_out [63:0] $end
    $var wire  5 ( regB_addr_in [4:0] $end
    $var wire 64 3 regB_data_out [63:0] $end
    $var wire 64 5 reg_write_data_in [63:0] $end
    $var wire  1 / reg_write_enable $end
    $var wire 64 P registers(0) [63:0] $end
    $var wire 64 R registers(1) [63:0] $end
    $var wire 64 d registers(10) [63:0] $end
    $var wire 64 f registers(11) [63:0] $end
    $var wire 64 h registers(12) [63:0] $end
    $var wire 64 j registers(13) [63:0] $end
    $var wire 64 l registers(14) [63:0] $end
    $var wire 64 n registers(15) [63:0] $end
    $var wire 64 p registers(16) [63:0] $end
    $var wire 64 r registers(17) [63:0] $end
    $var wire 64 t registers(18) [63:0] $end
    $var wire 64 v registers(19) [63:0] $end
    $var wire 64 T registers(2) [63:0] $end
    $var wire 64 x registers(20) [63:0] $end
    $var wire 64 z registers(21) [63:0] $end
    $var wire 64 | registers(22) [63:0] $end
    $var wire 64 ~ registers(23) [63:0] $end
    $var wire 64 "" registers(24) [63:0] $end
    $var wire 64 "$ registers(25) [63:0] $end
    $var wire 64 "& registers(26) [63:0] $end
    $var wire 64 "( registers(27) [63:0] $end
    $var wire 64 "* registers(28) [63:0] $end
    $var wire 64 ", registers(29) [63:0] $end
    $var wire 64 V registers(3) [63:0] $end
    $var wire 64 ". registers(30) [63:0] $end
    $var wire 64 "0 registers(31) [63:0] $end
    $var wire 64 X registers(4) [63:0] $end
    $var wire 64 Z registers(5) [63:0] $end
    $var wire 64 \ registers(6) [63:0] $end
    $var wire 64 ^ registers(7) [63:0] $end
    $var wire 64 ` registers(8) [63:0] $end
    $var wire 64 b registers(9) [63:0] $end
    $var wire  1 "4 reset $end
   $upscope $end
   $scope module fetch_inst $end
    $var wire  1 "3 clk $end
    $var wire 64 I display_addr [63:0] $end
    $var wire 64 "6 entry [63:0] $end
    $var wire 64 G fetched_instr [63:0] $end
    $var wire 32 C if_address_out [31:0] $end
    $var wire 32 # if_instr [31:0] $end
    $var wire 10 M index [9:0] $end
    $var wire 64 "R m_axi_araddr [63:0] $end
    $var wire  2 "V m_axi_arburst [1:0] $end
    $var wire  8 "T m_axi_arlen [7:0] $end
    $var wire  1 "[ m_axi_arready $end
    $var wire  3 "U m_axi_arsize [2:0] $end
    $var wire  1 "Z m_axi_arvalid $end
    $var wire 64 "] m_axi_rdata [63:0] $end
    $var wire  1 "` m_axi_rlast $end
    $var wire  1 "b m_axi_rready $end
    $var wire  1 "a m_axi_rvalid $end
    $var wire 64 K next_display_addr [63:0] $end
    $var wire 64 % next_pc [63:0] $end
    $var wire  3 $ next_state [2:0] $end
    $var wire 64 E pc [63:0] $end
    $var wire 10 N pc_fetch [9:0] $end
    $var wire  1 "4 reset $end
    $var wire  3 D state [2:0] $end
   $upscope $end
  $upscope $end
 $upscope $end
$enddefinitions $end


#0
b00000000000000000000000000000000 #
b000 $
b0000000000000000000000000000000000000000000000000000000000000000 %
b00000 '
b00000 (
b00000 )
b00000000000000000000000000000000 *
b00000000000000000000000000000000 +
b0000000 ,
b0000000 -
b0000 .
0/
00
b0000000000000000000000000000000000000000000000000000000000000000 1
b0000000000000000000000000000000000000000000000000000000000000000 3
b0000000000000000000000000000000000000000000000000000000000000000 5
b0000000000000000000000000000000000000000000000000000000000000000 7
b000 9
b0000000 :
b0000000000000000000000000000000000000000000000000000000000000000 ;
0=
0>
0?
b0000000 @
b0000000000000000000000000000000000000000000000000000000000000000 A
b00000000000000000000000000000000 C
b000 D
b0000000000000000000000000000000000000000000000000000000000000000 E
b0000000000000000000000000000000000000000000000000000000000000000 G
b0000000000000000000000000000000000000000000000000000000000000000 I
b0000000000000000000000000000000000000000000000000000000000000000 K
b0000000000 M
b0000000000 N
b00000000000000000000000000000000 O
b0000000000000000000000000000000000000000000000000000000000000000 P
b0000000000000000000000000000000000000000000000000000000000000000 R
b0000000000000000000000000000000000000000000000000000000000000000 T
b0000000000000000000000000000000000000000000000000000000000000000 V
b0000000000000000000000000000000000000000000000000000000000000000 X
b0000000000000000000000000000000000000000000000000000000000000000 Z
b0000000000000000000000000000000000000000000000000000000000000000 \
b0000000000000000000000000000000000000000000000000000000000000000 ^
b0000000000000000000000000000000000000000000000000000000000000000 `
b0000000000000000000000000000000000000000000000000000000000000000 b
b0000000000000000000000000000000000000000000000000000000000000000 d
b0000000000000000000000000000000000000000000000000000000000000000 f
b0000000000000000000000000000000000000000000000000000000000000000 h
b0000000000000000000000000000000000000000000000000000000000000000 j
b0000000000000000000000000000000000000000000000000000000000000000 l
b0000000000000000000000000000000000000000000000000000000000000000 n
b0000000000000000000000000000000000000000000000000000000000000000 p
b0000000000000000000000000000000000000000000000000000000000000000 r
b0000000000000000000000000000000000000000000000000000000000000000 t
b0000000000000000000000000000000000000000000000000000000000000000 v
b0000000000000000000000000000000000000000000000000000000000000000 x
b0000000000000000000000000000000000000000000000000000000000000000 z
b0000000000000000000000000000000000000000000000000000000000000000 |
b0000000000000000000000000000000000000000000000000000000000000000 ~
b0000000000000000000000000000000000000000000000000000000000000000 ""
b0000000000000000000000000000000000000000000000000000000000000000 "$
b0000000000000000000000000000000000000000000000000000000000000000 "&
b0000000000000000000000000000000000000000000000000000000000000000 "(
b0000000000000000000000000000000000000000000000000000000000000000 "*
b0000000000000000000000000000000000000000000000000000000000000000 ",
b0000000000000000000000000000000000000000000000000000000000000000 ".
b0000000000000000000000000000000000000000000000000000000000000000 "0
b00000000000000000000000000100000 "2
1"3
1"4
0"5
b0000000000000000000000000000000000000000000000000000000000000000 "6
b0000000000000000000000000000000000111111110000000000000000000000 "8
b0000000000000000000000000000000000110100010101100111000000000000 ":
b0000000000000 "<
b0000000000000000000000000000000000000000000000000000000000000000 "=
b00000000 "?
b000 "@
b00 "A
0"B
b0000 "C
b000 "D
0"E
0"F
b0000000000000000000000000000000000000000000000000000000000000000 "G
b00000000 "I
0"J
0"K
0"L
b0000000000000 "M
b00 "N
0"O
0"P
b0000000000000 "Q
b0000000000000000000000000000000000000000000000000000000000000000 "R
b00000111 "T
b000 "U
b10 "V
0"W
b0000 "X
b000 "Y
0"Z
0"[
b0000000000000 "\
b0000000000000000000000000000000000000000000000000000000000000000 "]
b00 "_
0"`
0"a
0"b
0"c
0"d
b0000000000000000000000000000000000000000000000000000000000000000 "e
b0000 "g
b00000000000000000000000000001101 "h
b00000000000000000000000001000000 "i
b00000000000000000000000000001000 "j
b000 "k
0"l
0"m
0"n
b0000000 "o
b000 "p
#0
1"F
1"L
1"[
#250
0"3
#250
#500
1"3
#500
#750
0"3
#750
#1000
1"3
#1000
#1250
0"3
0"4
#1250
#1500
b001 $
1"3
1"Z
#1500
1"5
#1750
0"3
#1750
#2000
b001 D
1"3
0"Z
#2000
#2250
0"3
#2250
#2500
1"3
#2500
#2750
0"3
#2750
#3000
1"3
#3000
#3250
0"3
#3250
#3500
1"3
#3500
#3750
0"3
#3750
#4000
1"3
#4000
#4250
0"3
#4250
#4500
1"3
#4500
#4750
0"3
#4750
#5000
1"3
#5000
#5250
0"3
#5250
#5500
1"3
#5500
#5750
0"3
#5750
#6000
1"3
#6000
#6250
0"3
#6250
#6500
1"3
#6500
#6750
0"3
#6750
#7000
1"3
#7000
#7250
0"3
#7250
#7500
1"3
#7500
#7750
0"3
#7750
#8000
1"3
#8000
#8250
0"3
#8250
#8500
1"3
#8500
#8750
0"3
#8750
#9000
1"3
#9000
#9250
0"3
#9250
#9500
1"3
#9500
#9750
0"3
#9750
#10000
1"3
#10000
#10250
0"3
#10250
#10500
1"3
#10500
#10750
0"3
#10750
#11000
1"3
#11000
#11250
0"3
#11250
#11500
1"3
#11500
#11750
0"3
#11750
#12000
1"3
#12000
#12250
0"3
#12250
#12500
1"3
#12500
#12750
0"3
#12750
#13000
1"3
#13000
#13250
0"3
#13250
#13500
1"3
#13500
#13750
0"3
#13750
#14000
1"3
#14000
#14250
0"3
#14250
#14500
1"3
#14500
#14750
0"3
#14750
#15000
1"3
#15000
#15250
0"3
#15250
#15500
1"3
#15500
#15750
0"3
#15750
#16000
1"3
#16000
#16250
0"3
#16250
#16500
1"3
#16500
#16750
0"3
#16750
#17000
1"3
#17000
#17250
0"3
#17250
#17500
1"3
#17500
#17750
0"3
#17750
#18000
1"3
#18000
#18250
0"3
#18250
#18500
1"3
#18500
#18750
0"3
#18750
#19000
1"3
#19000
#19250
0"3
#19250
#19500
1"3
#19500
#19750
0"3
#19750
#20000
1"3
#20000
#20250
0"3
#20250
#20500
1"3
#20500
#20750
0"3
#20750
#21000
1"3
#21000
#21250
0"3
#21250
#21500
1"3
#21500
#21750
0"3
#21750
#22000
1"3
#22000
#22250
0"3
#22250
#22500
1"3
#22500
#22750
0"3
#22750
#23000
1"3
#23000
#23250
0"3
#23250
#23500
1"3
#23500
#23750
0"3
#23750
#24000
1"3
#24000
#24250
0"3
#24250
#24500
1"3
#24500
#24750
0"3
#24750
#25000
1"3
#25000
#25250
0"3
#25250
#25500
1"3
#25500
#25750
0"3
#25750
#26000
1"3
#26000
#26250
0"3
#26250
#26500
1"3
#26500
#26750
0"3
#26750
#27000
1"3
#27000
#27250
0"3
#27250
#27500
1"3
#27500
#27750
0"3
#27750
#28000
1"3
#28000
#28250
0"3
#28250
#28500
1"3
#28500
#28750
0"3
#28750
#29000
1"3
#29000
#29250
0"3
#29250
#29500
1"3
#29500
#29750
0"3
#29750
#30000
1"3
#30000
#30250
0"3
#30250
#30500
1"3
#30500
#30750
0"3
#30750
#31000
1"3
#31000
#31250
0"3
#31250
#31500
1"3
#31500
#31750
0"3
#31750
#32000
1"3
#32000
#32250
0"3
#32250
#32500
1"3
#32500
#32750
0"3
#32750
#33000
1"3
#33000
#33250
0"3
#33250
#33500
1"3
#33500
#33750
0"3
#33750
#34000
1"3
#34000
#34250
0"3
#34250
#34500
1"3
#34500
#34750
0"3
#34750
#35000
1"3
#35000
#35250
0"3
#35250
#35500
1"3
#35500
#35750
0"3
#35750
#36000
1"3
#36000
#36250
0"3
#36250
#36500
1"3
#36500
#36750
0"3
#36750
#37000
1"3
#37000
#37250
0"3
#37250
#37500
1"3
#37500
#37750
0"3
#37750
#38000
1"3
#38000
#38250
0"3
#38250
#38500
1"3
#38500
#38750
0"3
#38750
#39000
1"3
#39000
#39250
0"3
#39250
#39500
1"3
#39500
#39750
0"3
#39750
#40000
1"3
#40000
#40250
0"3
#40250
#40500
1"3
#40500
#40750
0"3
#40750
#41000
1"3
#41000
#41250
0"3
#41250
#41500
1"3
#41500
#41750
0"3
#41750
#42000
1"3
#42000
#42250
0"3
#42250
#42500
1"3
#42500
#42750
0"3
#42750
#43000
1"3
#43000
#43250
0"3
#43250
#43500
1"3
#43500
#43750
0"3
#43750
#44000
1"3
#44000
#44250
0"3
#44250
#44500
1"3
#44500
#44750
0"3
#44750
#45000
1"3
#45000
#45250
0"3
#45250
#45500
1"3
#45500
#45750
0"3
#45750
#46000
1"3
#46000
#46250
0"3
#46250
#46500
1"3
#46500
#46750
0"3
#46750
#47000
1"3
#47000
#47250
0"3
#47250
#47500
1"3
#47500
#47750
0"3
#47750
#48000
1"3
#48000
#48250
0"3
#48250
#48500
1"3
#48500
#48750
0"3
#48750
#49000
1"3
#49000
#49250
0"3
#49250
#49500
1"3
#49500
b0000010010010000000001000001001111111010000000010000000100010011 "]
1"a
#49750
0"3
#49750
#50000
b100 $
1"3
1"b
#50000
#50250
0"3
#50250
#50500
b11111010000000010000000100010011 #
b001 $
b00010 '
b00010 )
b11111111111111111111111110100000 *
b0010011 ,
1/
10
b0000000000000000000000000000000011111111111111111111111110100000 5
b0000000000000000000000000000000011111111111111111111111110100000 7
b0000000000000000000000000000000001000001010001000100010001001001 ;
b0010011 @
b100 D
b0000010010010000000001000001001111111010000000010000000100010011 G
b0000000000000000000000000000000000000000000000000000000000001000 K
b0000000010 M
1"3
0"b
#50500
b0000010011010000000001010001001100000100011000000000010010010011 "]
#50750
0"3
#50750
#51000
b0000000000000000000000000000000011111111111111111111111110100000 1
b0000000000000000000000000000000111111111111111111111111101000000 5
b001 D
b0000000000000000000000000000000000000000000000000000000000001000 I
b0000000000000000000000000000000011111111111111111111111110100000 T
1"3
#51000
#51250
0"3
#51250
#51500
b100 $
b0000000000000000000000000000000111111111111111111111111101000000 1
b0000000000000000000000000000001011111111111111111111111011100000 5
b0000000000000000000000000000000111111111111111111111111101000000 T
1"3
1"b
#51500
#51750
0"3
#51750
#52000
b001 $
b0000000000000000000000000000001011111111111111111111111011100000 1
b0000000000000000000000000000001111111111111111111111111010000000 5
b100 D
b0000010011010000000001010001001100000100011000000000010010010011 G
b0000000000000000000000000000000000000000000000000000000000010000 K
b0000000100 M
b0000000000000000000000000000001011111111111111111111111011100000 T
1"3
0"b
#52000
b0000010100000000000001100001001100000100110100000000010110010011 "]
#52250
0"3
#52250
#52500
b0000000000000000000000000000001111111111111111111111111010000000 1
b0000000000000000000000000000010011111111111111111111111000100000 5
b001 D
b0000000000000000000000000000000000000000000000000000000000010000 I
b0000000000000000000000000000001111111111111111111111111010000000 T
1"3
#52500
#52750
0"3
#52750
#53000
b100 $
b0000000000000000000000000000010011111111111111111111111000100000 1
b0000000000000000000000000000010111111111111111111111110111000000 5
b0000000000000000000000000000010011111111111111111111111000100000 T
1"3
1"b
#53000
#53250
0"3
#53250
#53500
b001 $
b0000000000000000000000000000010111111111111111111111110111000000 1
b0000000000000000000000000000011011111111111111111111110101100000 5
b100 D
b0000010100000000000001100001001100000100110100000000010110010011 G
b0000000000000000000000000000000000000000000000000000000000011000 K
b0000000110 M
b0000000000000000000000000000010111111111111111111111110111000000 T
1"3
0"b
#53500
b0000010110000000000001110001001100000010000100000000011010010011 "]
#53750
0"3
#53750
#54000
b0000000000000000000000000000011011111111111111111111110101100000 1
b0000000000000000000000000000011111111111111111111111110100000000 5
b001 D
b0000000000000000000000000000000000000000000000000000000000011000 I
b0000000000000000000000000000011011111111111111111111110101100000 T
1"3
#54000
#54250
0"3
#54250
#54500
b100 $
b0000000000000000000000000000011111111111111111111111110100000000 1
b0000000000000000000000000000100011111111111111111111110010100000 5
b0000000000000000000000000000011111111111111111111111110100000000 T
1"3
1"b
#54500
#54750
0"3
#54750
#55000
b001 $
b0000000000000000000000000000100011111111111111111111110010100000 1
b0000000000000000000000000000100111111111111111111111110001000000 5
b100 D
b0000010110000000000001110001001100000010000100000000011010010011 G
b0000000000000000000000000000000000000000000000000000000000100000 K
b0000001000 M
b0000000000000000000000000000100011111111111111111111110010100000 T
1"3
0"b
#55000
b0000010100110000000010000001001100000101000000000000011110010011 "]
#55250
0"3
#55250
#55500
b0000000000000000000000000000100111111111111111111111110001000000 1
b0000000000000000000000000000101011111111111111111111101111100000 5
b001 D
b0000000000000000000000000000000000000000000000000000000000100000 I
b0000000000000000000000000000100111111111111111111111110001000000 T
1"3
#55500
#55750
0"3
#55750
#56000
b100 $
b0000000000000000000000000000101011111111111111111111101111100000 1
b0000000000000000000000000000101111111111111111111111101110000000 5
b0000000000000000000000000000101011111111111111111111101111100000 T
1"3
1"b
#56000
#56250
0"3
#56250
#56500
b001 $
b0000000000000000000000000000101111111111111111111111101110000000 1
b0000000000000000000000000000110011111111111111111111101100100000 5
b100 D
b0000010100110000000010000001001100000101000000000000011110010011 G
b0000000000000000000000000000000000000000000000000000000000101000 K
b0000001010 M
b0000000000000000000000000000101111111111111111111111101110000000 T
1"3
0"b
#56500
b0000010001010000000010010001001100000100110100000000100010010011 "]
#56750
0"3
#56750
#57000
b0000000000000000000000000000110011111111111111111111101100100000 1
b0000000000000000000000000000110111111111111111111111101011000000 5
b001 D
b0000000000000000000000000000000000000000000000000000000000101000 I
b0000000000000000000000000000110011111111111111111111101100100000 T
1"3
#57000
#57250
0"3
#57250
#57500
b100 $
b0000000000000000000000000000110111111111111111111111101011000000 1
b0000000000000000000000000000111011111111111111111111101001100000 5
b0000000000000000000000000000110111111111111111111111101011000000 T
1"3
1"b
#57500
#57750
0"3
#57750
#58000
b001 $
b0000000000000000000000000000111011111111111111111111101001100000 1
b0000000000000000000000000000111111111111111111111111101000000000 5
b100 D
b0000010001010000000010010001001100000100110100000000100010010011 G
b0000000000000000000000000000000000000000000000000000000000110000 K
b0000001100 M
b0000000000000000000000000000111011111111111111111111101001100000 T
1"3
0"b
#58000
b0000111111110100011100110001001100000010001000000000100110010011 "]
#58250
0"3
#58250
#58500
b0000000000000000000000000000111111111111111111111111101000000000 1
b0000000000000000000000000001000011111111111111111111100110100000 5
b001 D
b0000000000000000000000000000000000000000000000000000000000110000 I
b0000000000000000000000000000111111111111111111111111101000000000 T
1"3
#58500
#58750
0"3
#58750
#59000
b100 $
b0000000000000000000000000001000011111111111111111111100110100000 1
b0000000000000000000000000001000111111111111111111111100101000000 5
b0000000000000000000000000001000011111111111111111111100110100000 T
1"3
1"b
#59000
#59250
0"3
#59250
#59500
b001 $
b0000000000000000000000000001000111111111111111111111100101000000 1
b0000000000000000000000000001001011111111111111111111100011100000 5
b100 D
b0000111111110100011100110001001100000010001000000000100110010011 G
b0000000000000000000000000000000000000000000000000000000000111000 K
b0000001110 M
b0000000000000000000000000001000111111111111111111111100101000000 T
1"3
0"b
#59500
b0000111111110011011100110001001111111111111100110000001100011011 "]
1"`
#59750
0"3
#59750
#60000
b00000100100100000000010000010011 #
b00000 '
b01000 )
b00000000000000000000000001001001 *
b0000000000000000000000000000000000000000000000000000000000000000 1
b0000000000000000000000000000000000000000000000000000000001001001 5
b0000000000000000000000000000000000000000000000000000000001001001 7
b0000000000000000000000000000000000000000000000000000000000000100 A
b00000000000000000000000000000100 C
b001 D
b0000000000000000000000000000000000000000000000000000000000111000 I
b0000000100 N
b00000000000000000000000000000100 O
b0000000000000000000000000001001011111111111111111111100011100000 T
1"3
#60000
#60250
0"3
#60250
#60500
b00000100011000000000010010010011 #
b100 $
b01001 )
b00000000000000000000000001000110 *
b0000000000000000000000000000000000000000000000000000000001000110 5
b0000000000000000000000000000000000000000000000000000000001000110 7
b0000000000000000000000000000000000000000000000000000000000001000 A
b00000000000000000000000000001000 C
b0000001000 N
b00000000000000000000000000001000 O
b0000000000000000000000000000000000000000000000000000000001001001 `
1"3
1"b
#60500
#60750
0"3
#60750
#61000
b00000100110100000000010100010011 #
b01010 )
b00000000000000000000000001001101 *
b0000000000000000000000000000000000000000000000000000000001001101 5
b0000000000000000000000000000000000000000000000000000000001001101 7
b0000000000000000000000000000000000000000000000000000000000001100 A
b00000000000000000000000000001100 C
b100 D
b0000111111110011011100110001001111111111111100110000001100011011 G
b0000000000000000000000000000000000000000000000000000000001000000 K
b0000010000 M
b0000001100 N
b00000000000000000000000000001100 O
b0000000000000000000000000000000000000000000000000000000001000110 b
1"3
0"b
#61000
b000 $
b0000000000000000000000000000000000000000000000000000000001000000 %
0"a
#61250
0"3
#61250
#61500
b00000100110100000000010110010011 #
b01011 )
b0000000000000000000000000000000000000000000000000000000000010000 A
b00000000000000000000000000010000 C
b000 D
b0000000000000000000000000000000000000000000000000000000001000000 E
b0000000000000000000000000000000000000000000000000000000001000000 I
b0000010000 N
b00000000000000000000000000010000 O
b0000000000000000000000000000000000000000000000000000000001001101 d
1"3
#61500
#61750
0"3
#61750
#62000
b00000101000000000000011000010011 #
b001 $
b01100 )
b00000000000000000000000001010000 *
b0000000000000000000000000000000000000000000000000000000001010000 5
b0000000000000000000000000000000000000000000000000000000001010000 7
b0000000000000000000000000000000000000000000000000000000000010100 A
b00000000000000000000000000010100 C
b0000010100 N
b00000000000000000000000000010100 O
b0000000000000000000000000000000000000000000000000000000001001101 f
1"3
b0000000000000000000000000000000000000000000000000000000001000000 "R
1"Z
#62000
#62250
0"3
#62250
#62500
b00000010000100000000011010010011 #
b01101 )
b00000000000000000000000000100001 *
b0000000000000000000000000000000000000000000000000000000000100001 5
b0000000000000000000000000000000000000000000000000000000000100001 7
b0000000000000000000000000000000000000000000000000000000000011000 A
b00000000000000000000000000011000 C
b001 D
b0000011000 N
b00000000000000000000000000011000 O
b0000000000000000000000000000000000000000000000000000000001010000 h
1"3
0"Z
#62500
#62750
0"3
#62750
#63000
b00000101100000000000011100010011 #
b01110 )
b00000000000000000000000001011000 *
b0000000000000000000000000000000000000000000000000000000001011000 5
b0000000000000000000000000000000000000000000000000000000001011000 7
b0000000000000000000000000000000000000000000000000000000000011100 A
b00000000000000000000000000011100 C
b0000011100 N
b00000000000000000000000000011100 O
b0000000000000000000000000000000000000000000000000000000000100001 j
1"3
#63000
#63250
0"3
#63250
#63500
b00000101000000000000011110010011 #
b01111 )
b00000000000000000000000001010000 *
b0000000000000000000000000000000000000000000000000000000001010000 5
b0000000000000000000000000000000000000000000000000000000001010000 7
b0000000000000000000000000000000000000000000000000000000000100000 A
b00000000000000000000000000100000 C
b0000100000 N
b00000000000000000000000000100000 O
b0000000000000000000000000000000000000000000000000000000001011000 l
1"3
#63500
#63750
0"3
#63750
#64000
b00000101001100000000100000010011 #
b10000 )
b00000000000000000000000001010011 *
b0000000000000000000000000000000000000000000000000000000001010011 5
b0000000000000000000000000000000000000000000000000000000001010011 7
b0000000000000000000000000000000000000000000000000000000000100100 A
b00000000000000000000000000100100 C
b0000100100 N
b00000000000000000000000000100100 O
b0000000000000000000000000000000000000000000000000000000001010000 n
1"3
#64000
#64250
0"3
#64250
#64500
b00000100110100000000100010010011 #
b10001 )
b00000000000000000000000001001101 *
b0000000000000000000000000000000000000000000000000000000001001101 5
b0000000000000000000000000000000000000000000000000000000001001101 7
b0000000000000000000000000000000000000000000000000000000000101000 A
b00000000000000000000000000101000 C
b0000101000 N
b00000000000000000000000000101000 O
b0000000000000000000000000000000000000000000000000000000001010011 p
1"3
#64500
#64750
0"3
#64750
#65000
b00000100010100000000100100010011 #
b10010 )
b00000000000000000000000001000101 *
b0000000000000000000000000000000000000000000000000000000001000101 5
b0000000000000000000000000000000000000000000000000000000001000101 7
b0000000000000000000000000000000000000000000000000000000000101100 A
b00000000000000000000000000101100 C
b0000101100 N
b00000000000000000000000000101100 O
b0000000000000000000000000000000000000000000000000000000001001101 r
1"3
#65000
#65250
0"3
#65250
