trace.vcd
$version Generated by VerilatedVcd $end
$date Tue Apr  1 11:05:04 2025
 $end
$timescale   1ps $end

 $scope module TOP $end
  $var wire  1 / clk $end
  $var wire 64 2 entry [63:0] $end
  $var wire  1 1 hz32768timer $end
  $var wire 64 a m_axi_acaddr [63:0] $end
  $var wire  1 ` m_axi_acready $end
  $var wire  4 c m_axi_acsnoop [3:0] $end
  $var wire  1 _ m_axi_acvalid $end
  $var wire 64 N m_axi_araddr [63:0] $end
  $var wire  2 R m_axi_arburst [1:0] $end
  $var wire  4 T m_axi_arcache [3:0] $end
  $var wire 13 M m_axi_arid [12:0] $end
  $var wire  8 P m_axi_arlen [7:0] $end
  $var wire  1 S m_axi_arlock $end
  $var wire  3 U m_axi_arprot [2:0] $end
  $var wire  1 W m_axi_arready $end
  $var wire  3 Q m_axi_arsize [2:0] $end
  $var wire  1 V m_axi_arvalid $end
  $var wire 64 9 m_axi_awaddr [63:0] $end
  $var wire  2 = m_axi_awburst [1:0] $end
  $var wire  4 ? m_axi_awcache [3:0] $end
  $var wire 13 8 m_axi_awid [12:0] $end
  $var wire  8 ; m_axi_awlen [7:0] $end
  $var wire  1 > m_axi_awlock $end
  $var wire  3 @ m_axi_awprot [2:0] $end
  $var wire  1 B m_axi_awready $end
  $var wire  3 < m_axi_awsize [2:0] $end
  $var wire  1 A m_axi_awvalid $end
  $var wire 13 I m_axi_bid [12:0] $end
  $var wire  1 L m_axi_bready $end
  $var wire  2 J m_axi_bresp [1:0] $end
  $var wire  1 K m_axi_bvalid $end
  $var wire 64 Y m_axi_rdata [63:0] $end
  $var wire 13 X m_axi_rid [12:0] $end
  $var wire  1 \ m_axi_rlast $end
  $var wire  1 ^ m_axi_rready $end
  $var wire  2 [ m_axi_rresp [1:0] $end
  $var wire  1 ] m_axi_rvalid $end
  $var wire 64 C m_axi_wdata [63:0] $end
  $var wire  1 F m_axi_wlast $end
  $var wire  1 H m_axi_wready $end
  $var wire  8 E m_axi_wstrb [7:0] $end
  $var wire  1 G m_axi_wvalid $end
  $var wire  1 0 reset $end
  $var wire 64 6 satp [63:0] $end
  $var wire 64 4 stackptr [63:0] $end
  $scope module top $end
   $var wire 32 e ADDR_WIDTH [31:0] $end
   $var wire 32 e DATA_WIDTH [31:0] $end
   $var wire 32 d ID_WIDTH [31:0] $end
   $var wire 32 f STRB_WIDTH [31:0] $end
   $var wire  1 / clk $end
   $var wire 64 + display_addr [63:0] $end
   $var wire 64 2 entry [63:0] $end
   $var wire 64 ) fetched_instr [63:0] $end
   $var wire  1 1 hz32768timer $end
   $var wire 64 g instruction [63:0] $end
   $var wire 64 a m_axi_acaddr [63:0] $end
   $var wire  1 ` m_axi_acready $end
   $var wire  4 c m_axi_acsnoop [3:0] $end
   $var wire  1 _ m_axi_acvalid $end
   $var wire 64 N m_axi_araddr [63:0] $end
   $var wire  2 R m_axi_arburst [1:0] $end
   $var wire  4 T m_axi_arcache [3:0] $end
   $var wire 13 M m_axi_arid [12:0] $end
   $var wire  8 P m_axi_arlen [7:0] $end
   $var wire  1 S m_axi_arlock $end
   $var wire  3 U m_axi_arprot [2:0] $end
   $var wire  1 W m_axi_arready $end
   $var wire  3 Q m_axi_arsize [2:0] $end
   $var wire  1 V m_axi_arvalid $end
   $var wire 64 9 m_axi_awaddr [63:0] $end
   $var wire  2 = m_axi_awburst [1:0] $end
   $var wire  4 ? m_axi_awcache [3:0] $end
   $var wire 13 8 m_axi_awid [12:0] $end
   $var wire  8 ; m_axi_awlen [7:0] $end
   $var wire  1 > m_axi_awlock $end
   $var wire  3 @ m_axi_awprot [2:0] $end
   $var wire  1 B m_axi_awready $end
   $var wire  3 < m_axi_awsize [2:0] $end
   $var wire  1 A m_axi_awvalid $end
   $var wire 13 I m_axi_bid [12:0] $end
   $var wire  1 L m_axi_bready $end
   $var wire  2 J m_axi_bresp [1:0] $end
   $var wire  1 K m_axi_bvalid $end
   $var wire 64 Y m_axi_rdata [63:0] $end
   $var wire 13 X m_axi_rid [12:0] $end
   $var wire  1 \ m_axi_rlast $end
   $var wire  1 ^ m_axi_rready $end
   $var wire  2 [ m_axi_rresp [1:0] $end
   $var wire  1 ] m_axi_rvalid $end
   $var wire 64 C m_axi_wdata [63:0] $end
   $var wire  1 F m_axi_wlast $end
   $var wire  1 H m_axi_wready $end
   $var wire  8 E m_axi_wstrb [7:0] $end
   $var wire  1 G m_axi_wvalid $end
   $var wire 64 - next_display_addr [63:0] $end
   $var wire 64 $ next_pc [63:0] $end
   $var wire  3 # next_state [2:0] $end
   $var wire 64 & pc [63:0] $end
   $var wire  1 0 reset $end
   $var wire 64 6 satp [63:0] $end
   $var wire 64 4 stackptr [63:0] $end
   $var wire  3 ( state [2:0] $end
  $upscope $end
 $upscope $end
$enddefinitions $end


#0
b000 #
b0000000000000000000000000000000000000000000000000000000000000000 $
b0000000000000000000000000000000000000000000000000000000000000000 &
b000 (
b0000000000000000000000000000000000000000000000000000000000000000 )
b0000000000000000000000000000000000000000000000000000000000000000 +
b0000000000000000000000000000000000000000000000000000000000000000 -
1/
10
01
b0000000000000000000000000000000000000000000000000000000000000000 2
b0000000000000000000000000000000000111111110000000000000000000000 4
b0000000000000000000000000000000000110100010101100111000000000000 6
b0000000000000 8
b0000000000000000000000000000000000000000000000000000000000000000 9
b00000000 ;
b000 <
b00 =
0>
b0000 ?
b000 @
0A
0B
b0000000000000000000000000000000000000000000000000000000000000000 C
b00000000 E
0F
0G
0H
b0000000000000 I
b00 J
0K
0L
b0000000000000 M
b0000000000000000000000000000000000000000000000000000000000000000 N
b00000111 P
b000 Q
b10 R
0S
b0000 T
b000 U
0V
0W
b0000000000000 X
b0000000000000000000000000000000000000000000000000000000000000000 Y
b00 [
0\
0]
0^
0_
0`
b0000000000000000000000000000000000000000000000000000000000000000 a
b0000 c
b00000000000000000000000000001101 d
b00000000000000000000000001000000 e
b00000000000000000000000000001000 f
b0000000000000000000000000000000000000000000000000000000000000000 g
#0
1B
1H
1W
#250
0/
#250
#500
1/
#500
#750
0/
#750
#1000
1/
#1000
#1250
0/
00
#1250
#1500
b001 #
1/
1V
#1500
11
#1750
0/
#1750
#2000
b001 (
1/
0V
#2000
#2250
0/
#2250
#2500
1/
#2500
#2750
0/
#2750
#3000
1/
#3000
#3250
0/
#3250
#3500
1/
#3500
#3750
0/
#3750
#4000
1/
#4000
#4250
0/
#4250
#4500
1/
#4500
#4750
0/
#4750
#5000
1/
#5000
#5250
0/
#5250
#5500
1/
#5500
#5750
0/
#5750
#6000
1/
#6000
#6250
0/
#6250
#6500
1/
#6500
#6750
0/
#6750
#7000
1/
#7000
#7250
0/
#7250
#7500
1/
#7500
#7750
0/
#7750
#8000
1/
#8000
#8250
0/
#8250
#8500
1/
#8500
#8750
0/
#8750
#9000
1/
#9000
#9250
0/
#9250
#9500
1/
#9500
#9750
0/
#9750
#10000
1/
#10000
#10250
0/
#10250
#10500
1/
#10500
#10750
0/
#10750
#11000
1/
#11000
#11250
0/
#11250
#11500
1/
#11500
#11750
0/
#11750
#12000
1/
#12000
#12250
0/
#12250
#12500
1/
#12500
#12750
0/
#12750
#13000
1/
#13000
#13250
0/
#13250
#13500
1/
#13500
#13750
0/
#13750
#14000
1/
#14000
#14250
0/
#14250
#14500
1/
#14500
#14750
0/
#14750
#15000
1/
#15000
#15250
0/
#15250
#15500
1/
#15500
#15750
0/
#15750
#16000
1/
#16000
#16250
0/
#16250
#16500
1/
#16500
#16750
0/
#16750
#17000
1/
#17000
#17250
0/
#17250
#17500
1/
#17500
#17750
0/
#17750
#18000
1/
#18000
#18250
0/
#18250
#18500
1/
#18500
#18750
0/
#18750
#19000
1/
#19000
#19250
0/
#19250
#19500
1/
#19500
#19750
0/
#19750
#20000
1/
#20000
#20250
0/
#20250
#20500
1/
#20500
#20750
0/
#20750
#21000
1/
#21000
#21250
0/
#21250
#21500
1/
#21500
#21750
0/
#21750
#22000
1/
#22000
#22250
0/
#22250
#22500
1/
#22500
#22750
0/
#22750
#23000
1/
#23000
#23250
0/
#23250
#23500
1/
#23500
#23750
0/
#23750
#24000
1/
#24000
#24250
0/
#24250
#24500
1/
#24500
#24750
0/
#24750
#25000
1/
#25000
#25250
0/
#25250
#25500
1/
#25500
#25750
0/
#25750
#26000
1/
#26000
#26250
0/
#26250
#26500
1/
#26500
#26750
0/
#26750
#27000
1/
#27000
#27250
0/
#27250
#27500
1/
#27500
#27750
0/
#27750
#28000
1/
#28000
#28250
0/
#28250
#28500
1/
#28500
#28750
0/
#28750
#29000
1/
#29000
#29250
0/
#29250
#29500
1/
#29500
#29750
0/
#29750
#30000
1/
#30000
#30250
0/
#30250
#30500
1/
#30500
#30750
0/
#30750
#31000
1/
#31000
#31250
0/
#31250
#31500
1/
#31500
#31750
0/
#31750
#32000
1/
#32000
#32250
0/
#32250
#32500
1/
#32500
#32750
0/
#32750
#33000
1/
#33000
#33250
0/
#33250
#33500
1/
#33500
#33750
0/
#33750
#34000
1/
#34000
#34250
0/
#34250
#34500
1/
#34500
#34750
0/
#34750
#35000
1/
#35000
#35250
0/
#35250
#35500
1/
#35500
#35750
0/
#35750
#36000
1/
#36000
#36250
0/
#36250
#36500
1/
#36500
#36750
0/
#36750
#37000
1/
#37000
#37250
0/
#37250
#37500
1/
#37500
#37750
0/
#37750
#38000
1/
#38000
#38250
0/
#38250
#38500
1/
#38500
#38750
0/
#38750
#39000
1/
#39000
#39250
0/
#39250
#39500
1/
#39500
#39750
0/
#39750
#40000
1/
#40000
#40250
0/
#40250
#40500
1/
#40500
#40750
0/
#40750
#41000
1/
#41000
#41250
0/
#41250
#41500
1/
#41500
#41750
0/
#41750
#42000
1/
#42000
#42250
0/
#42250
#42500
1/
#42500
#42750
0/
#42750
#43000
1/
#43000
#43250
0/
#43250
#43500
1/
#43500
#43750
0/
#43750
#44000
1/
#44000
#44250
0/
#44250
#44500
1/
#44500
#44750
0/
#44750
#45000
1/
#45000
#45250
0/
#45250
#45500
1/
#45500
#45750
0/
#45750
#46000
1/
#46000
#46250
0/
#46250
#46500
1/
#46500
#46750
0/
#46750
#47000
1/
#47000
#47250
0/
#47250
#47500
1/
#47500
#47750
0/
#47750
#48000
1/
#48000
#48250
0/
#48250
#48500
1/
#48500
#48750
0/
#48750
#49000
1/
#49000
#49250
0/
#49250
#49500
1/
#49500
b0000000000010001001111000010001111111110000000010000000100010011 Y
1]
#49750
0/
#49750
#50000
b100 #
1/
1^
#50000
#50250
0/
#50250
#50500
b001 #
b100 (
b0000000000010001001111000010001111111110000000010000000100010011 )
1/
0^
#50500
b0000001000000001000001000001001100000000100000010011100000100011 Y
#50750
0/
#50750
#51000
b001 (
b0000000000000000000000000000000000000000000000000000000000001000 -
1/
#51000
#51250
0/
#51250
#51500
b100 #
b0000000000000000000000000000000000000000000000000000000000001000 +
1/
1^
#51500
#51750
0/
#51750
#52000
b001 #
b100 (
b0000001000000001000001000001001100000000100000010011100000100011 )
1/
0^
#52000
b1111111010110100001100000010001111111110101001000010011000100011 Y
#52250
0/
#52250
#52500
b001 (
b0000000000000000000000000000000000000000000000000000000000010000 -
1/
#52500
#52750
0/
#52750
#53000
b100 #
b0000000000000000000000000000000000000000000000000000000000010000 +
1/
1^
#53000
#53250
0/
#53250
#53500
b001 #
b100 (
b1111111010110100001100000010001111111110101001000010011000100011 )
1/
0^
#53500
b0000000000000111100001010001001100000000000000000000011110110111 Y
#53750
0/
#53750
#54000
b001 (
b0000000000000000000000000000000000000000000000000000000000011000 -
1/
#54000
#54250
0/
#54250
#54500
b100 #
b0000000000000000000000000000000000000000000000000000000000011000 +
1/
1^
#54500
#54750
0/
#54750
#55000
b001 #
b100 (
b0000000000000111100001010001001100000000000000000000011110110111 )
1/
0^
#55000
b0000000000000011000000001110011100000000000000000000001100010111 Y
#55250
0/
#55250
#55500
b001 (
b0000000000000000000000000000000000000000000000000000000000100000 -
1/
#55500
#55750
0/
#55750
#56000
b100 #
b0000000000000000000000000000000000000000000000000000000000100000 +
1/
1^
#56000
#56250
0/
#56250
#56500
b001 #
b100 (
b0000000000000011000000001110011100000000000000000000001100010111 )
1/
0^
#56500
b0000000000000111100001010001001100000000000000000000011110010011 Y
#56750
0/
#56750
#57000
b001 (
b0000000000000000000000000000000000000000000000000000000000101000 -
1/
#57000
#57250
0/
#57250
#57500
b100 #
b0000000000000000000000000000000000000000000000000000000000101000 +
1/
1^
#57500
#57750
0/
#57750
#58000
b001 #
b100 (
b0000000000000111100001010001001100000000000000000000011110010011 )
1/
0^
#58000
b0000000100000001001101000000001100000001100000010011000010000011 Y
#58250
0/
#58250
#58500
b001 (
b0000000000000000000000000000000000000000000000000000000000110000 -
1/
#58500
#58750
0/
#58750
#59000
b100 #
b0000000000000000000000000000000000000000000000000000000000110000 +
1/
1^
#59000
#59250
0/
#59250
#59500
b001 #
b100 (
b0000000100000001001101000000001100000001100000010011000010000011 )
1/
0^
#59500
b0000000000000000100000000110011100000010000000010000000100010011 Y
1\
#59750
0/
#59750
#60000
b001 (
b0000000000000000000000000000000000000000000000000000000000111000 -
1/
#60000
#60250
0/
#60250
#60500
b100 #
b0000000000000000000000000000000000000000000000000000000000111000 +
1/
1^
#60500
#60750
0/
#60750
#61000
b100 (
b0000000000000000100000000110011100000010000000010000000100010011 )
1/
0^
#61000
b000 #
b0000000000000000000000000000000000000000000000000000000001000000 $
0]
#61250
0/
#61250
#61500
b0000000000000000000000000000000000000000000000000000000001000000 &
b000 (
b0000000000000000000000000000000000000000000000000000000001000000 -
1/
#61500
#61750
0/
#61750
#62000
b001 #
b0000000000000000000000000000000000000000000000000000000001000000 +
1/
b0000000000000000000000000000000000000000000000000000000001000000 N
1V
#62000
#62250
0/
#62250
#62500
b001 (
1/
0V
